[
  {
    "Volume": "27498",
    "MID": "NB",
    "Iter": "1",
    "Month": "July 2021"
  },
  {
    "Volume": "16463",
    "MID": "CARD",
    "Iter": "2",
    "Month": "July 2021"
  },
  {
    "Volume": "2194",
    "MID": "WALLET",
    "Iter": "3",
    "Month": "July 2021"
  },
  {
    "Volume": "1814",
    "MID": "CASH",
    "Iter": "4",
    "Month": "July 2021"
  },
  {
    "Volume": "1308",
    "MID": "UPI",
    "Iter": "5",
    "Month": "July 2021"
  },
  {
    "Volume": "92135",
    "MID": "NB",
    "Iter": "6",
    "Month": "August 2021"
  },
  {
    "Volume": "51562",
    "MID": "CARD",
    "Iter": "7",
    "Month": "August 2021"
  },
  {
    "Volume": "16142",
    "MID": "CASH",
    "Iter": "8",
    "Month": "August 2021"
  },
  {
    "Volume": "10140",
    "MID": "WALLET",
    "Iter": "9",
    "Month": "August 2021"
  },
  {
    "Volume": "3014",
    "MID": "UPI",
    "Iter": "10",
    "Month": "August 2021"
  },
  {
    "Volume": "176878",
    "MID": "NB",
    "Iter": "11",
    "Month": "September 2021"
  },
  {
    "Volume": "115492",
    "MID": "CARD",
    "Iter": "12",
    "Month": "September 2021"
  },
  {
    "Volume": "42363",
    "MID": "CASH",
    "Iter": "13",
    "Month": "September 2021"
  },
  {
    "Volume": "6957",
    "MID": "WALLET",
    "Iter": "14",
    "Month": "September 2021"
  },
  {
    "Volume": "2579",
    "MID": "UPI",
    "Iter": "15",
    "Month": "September 2021"
  },
  {
    "Volume": "278167",
    "MID": "CARD",
    "Iter": "16",
    "Month": "October 2021"
  },
  {
    "Volume": "24279",
    "MID": "NB",
    "Iter": "17",
    "Month": "October 2021"
  },
  {
    "Volume": "5073",
    "MID": "WALLET",
    "Iter": "18",
    "Month": "October 2021"
  },
  {
    "Volume": "1780",
    "MID": "UPI",
    "Iter": "19",
    "Month": "October 2021"
  },
  {
    "Volume": "222",
    "MID": "Unknown",
    "Iter": "20",
    "Month": "October 2021"
  },
  {
    "Volume": "159117",
    "MID": "CARD",
    "Iter": "21",
    "Month": "November 2021"
  },
  {
    "Volume": "27676",
    "MID": "NB",
    "Iter": "22",
    "Month": "November 2021"
  },
  {
    "Volume": "7916",
    "MID": "WALLET",
    "Iter": "23",
    "Month": "November 2021"
  },
  {
    "Volume": "1986",
    "MID": "UPI",
    "Iter": "24",
    "Month": "November 2021"
  },
  {
    "Volume": "355",
    "MID": "CASH",
    "Iter": "25",
    "Month": "November 2021"
  },
  {
    "Volume": "131462",
    "MID": "CARD",
    "Iter": "26",
    "Month": "December 2021"
  },
  {
    "Volume": "31304",
    "MID": "NB",
    "Iter": "27",
    "Month": "December 2021"
  },
  {
    "Volume": "5609",
    "MID": "WALLET",
    "Iter": "28",
    "Month": "December 2021"
  },
  {
    "Volume": "1446",
    "MID": "UPI",
    "Iter": "29",
    "Month": "December 2021"
  },
  {
    "Volume": "647",
    "MID": "CASH",
    "Iter": "30",
    "Month": "December 2021"
  },
  {
    "Volume": "181121",
    "MID": "CARD",
    "Iter": "31",
    "Month": "January 2022"
  },
  {
    "Volume": "30777",
    "MID": "NB",
    "Iter": "32",
    "Month": "January 2022"
  },
  {
    "Volume": "4495",
    "MID": "WALLET",
    "Iter": "33",
    "Month": "January 2022"
  },
  {
    "Volume": "2234",
    "MID": "UPI",
    "Iter": "34",
    "Month": "January 2022"
  },
  {
    "Volume": "635",
    "MID": "CASH",
    "Iter": "35",
    "Month": "January 2022"
  },
  {
    "Volume": "33947",
    "MID": "CARD",
    "Iter": "36",
    "Month": "February 2022"
  },
  {
    "Volume": "13382",
    "MID": "NB",
    "Iter": "37",
    "Month": "February 2022"
  },
  {
    "Volume": "2433",
    "MID": "WALLET",
    "Iter": "38",
    "Month": "February 2022"
  },
  {
    "Volume": "1382",
    "MID": "UPI",
    "Iter": "39",
    "Month": "February 2022"
  },
  {
    "Volume": "433",
    "MID": "CASH",
    "Iter": "40",
    "Month": "February 2022"
  }
]