[
	{
	  "Volume": "37948",
	  "MID": "RAZORPAY",
	  "Iter": "1",
	  "Month": "July 2021"
	},
	{
	  "Volume": "4034",
	  "MID": "PAYU",
	  "Iter": "2",
	  "Month": "July 2021"
	},
	{
	  "Volume": "1814",
	  "MID": "CASH",
	  "Iter": "3",
	  "Month": "July 2021"
	},
	{
	  "Volume": "1201",
	  "MID": "TATAPAY",
	  "Iter": "4",
	  "Month": "July 2021"
	},
	{
	  "Volume": "924",
	  "MID": "BILLDESK",
	  "Iter": "5",
	  "Month": "July 2021"
	},
	{
	  "Volume": "752",
	  "MID": "PAYTM_V2",
	  "Iter": "6",
	  "Month": "July 2021"
	},
	{
	  "Volume": "614",
	  "MID": "PAYTM",
	  "Iter": "7",
	  "Month": "July 2021"
	},
	{
	  "Volume": "538",
	  "MID": "CCAVENUE_V2",
	  "Iter": "8",
	  "Month": "July 2021"
	},
	{
	  "Volume": "449",
	  "MID": "GOCASHFREE",
	  "Iter": "9",
	  "Month": "July 2021"
	},
	{
	  "Volume": "259",
	  "MID": "CYBERSOURCE",
	  "Iter": "10",
	  "Month": "July 2021"
	},
	{
	  "Volume": "125374",
	  "MID": "RAZORPAY",
	  "Iter": "11",
	  "Month": "August 2021"
	},
	{
	  "Volume": "16142",
	  "MID": "CASH",
	  "Iter": "12",
	  "Month": "August 2021"
	},
	{
	  "Volume": "11962",
	  "MID": "PAYU",
	  "Iter": "13",
	  "Month": "August 2021"
	},
	{
	  "Volume": "7044",
	  "MID": "TATAPAY",
	  "Iter": "14",
	  "Month": "August 2021"
	},
	{
	  "Volume": "2322",
	  "MID": "BILLDESK",
	  "Iter": "15",
	  "Month": "August 2021"
	},
	{
	  "Volume": "2115",
	  "MID": "CCAVENUE_V2",
	  "Iter": "16",
	  "Month": "August 2021"
	},
	{
	  "Volume": "1926",
	  "MID": "PAYTM_V2",
	  "Iter": "17",
	  "Month": "August 2021"
	},
	{
	  "Volume": "1854",
	  "MID": "PAYTM",
	  "Iter": "18",
	  "Month": "August 2021"
	},
	{
	  "Volume": "1129",
	  "MID": "GOCASHFREE",
	  "Iter": "19",
	  "Month": "August 2021"
	},
	{
	  "Volume": "713",
	  "MID": "DUMMY",
	  "Iter": "20",
	  "Month": "August 2021"
	},
	{
	  "Volume": "273833",
	  "MID": "RAZORPAY",
	  "Iter": "21",
	  "Month": "September 2021"
	},
	{
	  "Volume": "42363",
	  "MID": "CASH",
	  "Iter": "22",
	  "Month": "September 2021"
	},
	{
	  "Volume": "11481",
	  "MID": "PAYU",
	  "Iter": "23",
	  "Month": "September 2021"
	},
	{
	  "Volume": "4905",
	  "MID": "TATAPAY",
	  "Iter": "24",
	  "Month": "September 2021"
	},
	{
	  "Volume": "2118",
	  "MID": "BILLDESK",
	  "Iter": "25",
	  "Month": "September 2021"
	},
	{
	  "Volume": "2034",
	  "MID": "CCAVENUE_V2",
	  "Iter": "26",
	  "Month": "September 2021"
	},
	{
	  "Volume": "1803",
	  "MID": "PAYTM_V2",
	  "Iter": "27",
	  "Month": "September 2021"
	},
	{
	  "Volume": "1614",
	  "MID": "GOCASHFREE",
	  "Iter": "28",
	  "Month": "September 2021"
	},
	{
	  "Volume": "1231",
	  "MID": "PAYTM",
	  "Iter": "29",
	  "Month": "September 2021"
	},
	{
	  "Volume": "818",
	  "MID": "DUMMY",
	  "Iter": "30",
	  "Month": "September 2021"
	},
	{
	  "Volume": "285533",
	  "MID": "RAZORPAY",
	  "Iter": "31",
	  "Month": "October 2021"
	},
	{
	  "Volume": "9669",
	  "MID": "PAYU",
	  "Iter": "32",
	  "Month": "October 2021"
	},
	{
	  "Volume": "2612",
	  "MID": "TATAPAY",
	  "Iter": "33",
	  "Month": "October 2021"
	},
	{
	  "Volume": "2592",
	  "MID": "BILLDESK",
	  "Iter": "34",
	  "Month": "October 2021"
	},
	{
	  "Volume": "2370",
	  "MID": "CCAVENUE_V2",
	  "Iter": "35",
	  "Month": "October 2021"
	},
	{
	  "Volume": "1396",
	  "MID": "GOCASHFREE",
	  "Iter": "36",
	  "Month": "October 2021"
	},
	{
	  "Volume": "1307",
	  "MID": "PAYTM_V2",
	  "Iter": "37",
	  "Month": "October 2021"
	},
	{
	  "Volume": "911",
	  "MID": "PAYTM",
	  "Iter": "38",
	  "Month": "October 2021"
	},
	{
	  "Volume": "766",
	  "MID": "PHONEPE",
	  "Iter": "39",
	  "Month": "October 2021"
	},
	{
	  "Volume": "687",
	  "MID": "DUMMY",
	  "Iter": "40",
	  "Month": "October 2021"
	},
	{
	  "Volume": "171703",
	  "MID": "RAZORPAY",
	  "Iter": "41",
	  "Month": "November 2021"
	},
	{
	  "Volume": "7926",
	  "MID": "PAYU",
	  "Iter": "42",
	  "Month": "November 2021"
	},
	{
	  "Volume": "3557",
	  "MID": "TATAPAY",
	  "Iter": "43",
	  "Month": "November 2021"
	},
	{
	  "Volume": "3002",
	  "MID": "BILLDESK",
	  "Iter": "44",
	  "Month": "November 2021"
	},
	{
	  "Volume": "2947",
	  "MID": "CCAVENUE_V2",
	  "Iter": "45",
	  "Month": "November 2021"
	},
	{
	  "Volume": "2732",
	  "MID": "GOCASHFREE",
	  "Iter": "46",
	  "Month": "November 2021"
	},
	{
	  "Volume": "1132",
	  "MID": "PAYTM_V2",
	  "Iter": "47",
	  "Month": "November 2021"
	},
	{
	  "Volume": "734",
	  "MID": "DUMMY",
	  "Iter": "48",
	  "Month": "November 2021"
	},
	{
	  "Volume": "680",
	  "MID": "PAYTM",
	  "Iter": "49",
	  "Month": "November 2021"
	},
	{
	  "Volume": "513",
	  "MID": "PHONEPE",
	  "Iter": "50",
	  "Month": "November 2021"
	},
	{
	  "Volume": "143102",
	  "MID": "RAZORPAY",
	  "Iter": "51",
	  "Month": "December 2021"
	},
	{
	  "Volume": "7648",
	  "MID": "PAYU",
	  "Iter": "52",
	  "Month": "December 2021"
	},
	{
	  "Volume": "5955",
	  "MID": "PAYTM_V2",
	  "Iter": "53",
	  "Month": "December 2021"
	},
	{
	  "Volume": "2638",
	  "MID": "BILLDESK",
	  "Iter": "54",
	  "Month": "December 2021"
	},
	{
	  "Volume": "2536",
	  "MID": "GOCASHFREE",
	  "Iter": "55",
	  "Month": "December 2021"
	},
	{
	  "Volume": "2329",
	  "MID": "TATAPAY",
	  "Iter": "56",
	  "Month": "December 2021"
	},
	{
	  "Volume": "1010",
	  "MID": "CCAVENUE_V2",
	  "Iter": "57",
	  "Month": "December 2021"
	},
	{
	  "Volume": "861",
	  "MID": "PAYTM",
	  "Iter": "58",
	  "Month": "December 2021"
	},
	{
	  "Volume": "851",
	  "MID": "DUMMY",
	  "Iter": "59",
	  "Month": "December 2021"
	},
	{
	  "Volume": "647",
	  "MID": "CASH",
	  "Iter": "60",
	  "Month": "December 2021"
	},
	{
	  "Volume": "193417",
	  "MID": "RAZORPAY",
	  "Iter": "61",
	  "Month": "January 2022"
	},
	{
	  "Volume": "7934",
	  "MID": "PAYU",
	  "Iter": "62",
	  "Month": "January 2022"
	},
	{
	  "Volume": "5151",
	  "MID": "PAYTM_V2",
	  "Iter": "63",
	  "Month": "January 2022"
	},
	{
	  "Volume": "3631",
	  "MID": "BILLDESK",
	  "Iter": "64",
	  "Month": "January 2022"
	},
	{
	  "Volume": "1818",
	  "MID": "GOCASHFREE",
	  "Iter": "65",
	  "Month": "January 2022"
	},
	{
	  "Volume": "1336",
	  "MID": "TATAPAY",
	  "Iter": "66",
	  "Month": "January 2022"
	},
	{
	  "Volume": "1218",
	  "MID": "DUMMY",
	  "Iter": "67",
	  "Month": "January 2022"
	},
	{
	  "Volume": "1075",
	  "MID": "PHONEPE",
	  "Iter": "68",
	  "Month": "January 2022"
	},
	{
	  "Volume": "877",
	  "MID": "PAYTM",
	  "Iter": "69",
	  "Month": "January 2022"
	},
	{
	  "Volume": "832",
	  "MID": "CCAVENUE_V2",
	  "Iter": "70",
	  "Month": "January 2022"
	},
	{
	  "Volume": "40291",
	  "MID": "RAZORPAY",
	  "Iter": "71",
	  "Month": "February 2022"
	},
	{
	  "Volume": "3288",
	  "MID": "PAYU",
	  "Iter": "72",
	  "Month": "February 2022"
	},
	{
	  "Volume": "2147",
	  "MID": "BILLDESK",
	  "Iter": "73",
	  "Month": "February 2022"
	},
	{
	  "Volume": "1382",
	  "MID": "PAYTM_V2",
	  "Iter": "74",
	  "Month": "February 2022"
	},
	{
	  "Volume": "1272",
	  "MID": "TATAPAY",
	  "Iter": "75",
	  "Month": "February 2022"
	},
	{
	  "Volume": "661",
	  "MID": "GOCASHFREE",
	  "Iter": "76",
	  "Month": "February 2022"
	},
	{
	  "Volume": "482",
	  "MID": "CCAVENUE_V2",
	  "Iter": "77",
	  "Month": "February 2022"
	},
	{
	  "Volume": "433",
	  "MID": "CASH",
	  "Iter": "78",
	  "Month": "February 2022"
	},
	{
	  "Volume": "371",
	  "MID": "PAYTM",
	  "Iter": "79",
	  "Month": "February 2022"
	},
	{
	  "Volume": "230",
	  "MID": "CYBERSOURCE",
	  "Iter": "80",
	  "Month": "February 2022"
	}
  ]