[
	{
	  "Volume": "31474091",
	  "MID": "CARD",
	  "Month": "January 2020",
	  "Iter": "1"
	},
	{
	  "Volume": "20898443",
	  "MID": "UPI",
	  "Month": "January 2020",
	  "Iter": "2"
	},
	{
	  "Volume": "8221728",
	  "MID": "WALLET",
	  "Month": "January 2020",
	  "Iter": "3"
	},
	{
	  "Volume": "4653075",
	  "MID": "NB",
	  "Month": "January 2020",
	  "Iter": "4"
	},
	{
	  "Volume": "10175",
	  "MID": "CONSUMER_FINANCE",
	  "Month": "January 2020",
	  "Iter": "5"
	},
	{
	  "Volume": "21533725",
	  "MID": "CARD",
	  "Month": "February 2020",
	  "Iter": "6"
	},
	{
	  "Volume": "17410062",
	  "MID": "UPI",
	  "Month": "February 2020",
	  "Iter": "7"
	},
	{
	  "Volume": "7951381",
	  "MID": "WALLET",
	  "Month": "February 2020",
	  "Iter": "8"
	},
	{
	  "Volume": "4413664",
	  "MID": "NB",
	  "Month": "February 2020",
	  "Iter": "9"
	},
	{
	  "Volume": "8637",
	  "MID": "CONSUMER_FINANCE",
	  "Month": "February 2020",
	  "Iter": "10"
	},
	{
	  "Volume": "17388698",
	  "MID": "CARD",
	  "Month": "March 2020",
	  "Iter": "11"
	},
	{
	  "Volume": "12369036",
	  "MID": "UPI",
	  "Month": "March 2020",
	  "Iter": "12"
	},
	{
	  "Volume": "7565174",
	  "MID": "WALLET",
	  "Month": "March 2020",
	  "Iter": "13"
	},
	{
	  "Volume": "4135178",
	  "MID": "NB",
	  "Month": "March 2020",
	  "Iter": "14"
	},
	{
	  "Volume": "8610",
	  "MID": "CONSUMER_FINANCE",
	  "Month": "March 2020",
	  "Iter": "15"
	},
	{
	  "Volume": "12685168",
	  "MID": "CARD",
	  "Month": "April 2020",
	  "Iter": "16"
	},
	{
	  "Volume": "10577809",
	  "MID": "WALLET",
	  "Month": "April 2020",
	  "Iter": "17"
	},
	{
	  "Volume": "7873033",
	  "MID": "UPI",
	  "Month": "April 2020",
	  "Iter": "18"
	},
	{
	  "Volume": "3432383",
	  "MID": "NB",
	  "Month": "April 2020",
	  "Iter": "19"
	},
	{
	  "Volume": "251",
	  "MID": "CONSUMER_FINANCE",
	  "Month": "April 2020",
	  "Iter": "20"
	},
	{
	  "Volume": "15933951",
	  "MID": "CARD",
	  "Month": "May 2020",
	  "Iter": "21"
	},
	{
	  "Volume": "12776805",
	  "MID": "WALLET",
	  "Month": "May 2020",
	  "Iter": "22"
	},
	{
	  "Volume": "9167400",
	  "MID": "UPI",
	  "Month": "May 2020",
	  "Iter": "23"
	},
	{
	  "Volume": "3729860",
	  "MID": "NB",
	  "Month": "May 2020",
	  "Iter": "24"
	},
	{
	  "Volume": "180",
	  "MID": "CONSUMER_FINANCE",
	  "Month": "May 2020",
	  "Iter": "25"
	},
	{
	  "Volume": "16671619",
	  "MID": "CARD",
	  "Month": "June 2020",
	  "Iter": "26"
	},
	{
	  "Volume": "11882739",
	  "MID": "WALLET",
	  "Month": "June 2020",
	  "Iter": "27"
	},
	{
	  "Volume": "9145715",
	  "MID": "UPI",
	  "Month": "June 2020",
	  "Iter": "28"
	},
	{
	  "Volume": "3705303",
	  "MID": "NB",
	  "Month": "June 2020",
	  "Iter": "29"
	},
	{
	  "Volume": "175",
	  "MID": "CONSUMER_FINANCE",
	  "Month": "June 2020",
	  "Iter": "30"
	},
	{
	  "Volume": "18629206",
	  "MID": "CARD",
	  "Month": "July 2020",
	  "Iter": "31"
	},
	{
	  "Volume": "12324381",
	  "MID": "WALLET",
	  "Month": "July 2020",
	  "Iter": "32"
	},
	{
	  "Volume": "10628959",
	  "MID": "UPI",
	  "Month": "July 2020",
	  "Iter": "33"
	},
	{
	  "Volume": "4093609",
	  "MID": "NB",
	  "Month": "July 2020",
	  "Iter": "34"
	},
	{
	  "Volume": "172",
	  "MID": "CONSUMER_FINANCE",
	  "Month": "July 2020",
	  "Iter": "35"
	},
	{
	  "Volume": "19871107",
	  "MID": "CARD",
	  "Month": "August 2020",
	  "Iter": "36"
	},
	{
	  "Volume": "12954168",
	  "MID": "WALLET",
	  "Month": "August 2020",
	  "Iter": "37"
	},
	{
	  "Volume": "11203554",
	  "MID": "UPI",
	  "Month": "August 2020",
	  "Iter": "38"
	},
	{
	  "Volume": "4277146",
	  "MID": "NB",
	  "Month": "August 2020",
	  "Iter": "39"
	},
	{
	  "Volume": "195",
	  "MID": "CONSUMER_FINANCE",
	  "Month": "August 2020",
	  "Iter": "40"
	},
	{
	  "Volume": "20617561",
	  "MID": "CARD",
	  "Month": "September 2020",
	  "Iter": "41"
	},
	{
	  "Volume": "14593749",
	  "MID": "WALLET",
	  "Month": "September 2020",
	  "Iter": "42"
	},
	{
	  "Volume": "13484787",
	  "MID": "UPI",
	  "Month": "September 2020",
	  "Iter": "43"
	},
	{
	  "Volume": "4288660",
	  "MID": "NB",
	  "Month": "September 2020",
	  "Iter": "44"
	},
	{
	  "Volume": "129",
	  "MID": "CONSUMER_FINANCE",
	  "Month": "September 2020",
	  "Iter": "45"
	},
	{
	  "Volume": "21077169",
	  "MID": "CARD",
	  "Month": "October 2020",
	  "Iter": "46"
	},
	{
	  "Volume": "19062343",
	  "MID": "UPI",
	  "Month": "October 2020",
	  "Iter": "47"
	},
	{
	  "Volume": "17910227",
	  "MID": "WALLET",
	  "Month": "October 2020",
	  "Iter": "48"
	},
	{
	  "Volume": "4644243",
	  "MID": "NB",
	  "Month": "October 2020",
	  "Iter": "49"
	},
	{
	  "Volume": "99",
	  "MID": "CONSUMER_FINANCE",
	  "Month": "October 2020",
	  "Iter": "50"
	},
	{
	  "Volume": "19964790",
	  "MID": "CARD",
	  "Month": "November 2020",
	  "Iter": "51"
	},
	{
	  "Volume": "15168077",
	  "MID": "UPI",
	  "Month": "November 2020",
	  "Iter": "52"
	},
	{
	  "Volume": "11864294",
	  "MID": "WALLET",
	  "Month": "November 2020",
	  "Iter": "53"
	},
	{
	  "Volume": "4516717",
	  "MID": "NB",
	  "Month": "November 2020",
	  "Iter": "54"
	},
	{
	  "Volume": "150",
	  "MID": "CONSUMER_FINANCE",
	  "Month": "November 2020",
	  "Iter": "55"
	},
	{
	  "Volume": "21077597",
	  "MID": "CARD",
	  "Month": "December 2020",
	  "Iter": "56"
	},
	{
	  "Volume": "15280534",
	  "MID": "UPI",
	  "Month": "December 2020",
	  "Iter": "57"
	},
	{
	  "Volume": "9945412",
	  "MID": "WALLET",
	  "Month": "December 2020",
	  "Iter": "58"
	},
	{
	  "Volume": "4749539",
	  "MID": "NB",
	  "Month": "December 2020",
	  "Iter": "59"
	},
	{
	  "Volume": "156",
	  "MID": "CONSUMER_FINANCE",
	  "Month": "December 2020",
	  "Iter": "60"
	},
	{
	  "Volume": "21010740",
	  "MID": "CARD",
	  "Month": "January 2021",
	  "Iter": "61"
	},
	{
	  "Volume": "16777106",
	  "MID": "UPI",
	  "Month": "January 2021",
	  "Iter": "62"
	},
	{
	  "Volume": "10477734",
	  "MID": "WALLET",
	  "Month": "January 2021",
	  "Iter": "63"
	},
	{
	  "Volume": "4652135",
	  "MID": "NB",
	  "Month": "January 2021",
	  "Iter": "64"
	},
	{
	  "Volume": "441",
	  "MID": "CONSUMER_FINANCE",
	  "Month": "January 2021",
	  "Iter": "65"
	},
	{
	  "Volume": "18911683",
	  "MID": "CARD",
	  "Month": "February 2021",
	  "Iter": "66"
	},
	{
	  "Volume": "15142713",
	  "MID": "UPI",
	  "Month": "February 2021",
	  "Iter": "67"
	},
	{
	  "Volume": "9408550",
	  "MID": "WALLET",
	  "Month": "February 2021",
	  "Iter": "68"
	},
	{
	  "Volume": "4264443",
	  "MID": "NB",
	  "Month": "February 2021",
	  "Iter": "69"
	},
	{
	  "Volume": "471",
	  "MID": "CONSUMER_FINANCE",
	  "Month": "February 2021",
	  "Iter": "70"
	},
	{
	  "Volume": "21825013",
	  "MID": "CARD",
	  "Month": "March 2021",
	  "Iter": "71"
	},
	{
	  "Volume": "18540556",
	  "MID": "UPI",
	  "Month": "March 2021",
	  "Iter": "72"
	},
	{
	  "Volume": "11091354",
	  "MID": "WALLET",
	  "Month": "March 2021",
	  "Iter": "73"
	},
	{
	  "Volume": "4956123",
	  "MID": "NB",
	  "Month": "March 2021",
	  "Iter": "74"
	},
	{
	  "Volume": "544",
	  "MID": "CONSUMER_FINANCE",
	  "Month": "March 2021",
	  "Iter": "75"
	},
	{
	  "Volume": "21693612",
	  "MID": "CARD",
	  "Month": "April 2021",
	  "Iter": "76"
	},
	{
	  "Volume": "20815119",
	  "MID": "UPI",
	  "Month": "April 2021",
	  "Iter": "77"
	},
	{
	  "Volume": "18087392",
	  "MID": "WALLET",
	  "Month": "April 2021",
	  "Iter": "78"
	},
	{
	  "Volume": "4842470",
	  "MID": "NB",
	  "Month": "April 2021",
	  "Iter": "79"
	},
	{
	  "Volume": "614",
	  "MID": "CONSUMER_FINANCE",
	  "Month": "April 2021",
	  "Iter": "80"
	},
	{
	  "Volume": "23435174",
	  "MID": "CARD",
	  "Month": "May 2021",
	  "Iter": "81"
	},
	{
	  "Volume": "22772750",
	  "MID": "UPI",
	  "Month": "May 2021",
	  "Iter": "82"
	},
	{
	  "Volume": "17443351",
	  "MID": "WALLET",
	  "Month": "May 2021",
	  "Iter": "83"
	},
	{
	  "Volume": "5389853",
	  "MID": "NB",
	  "Month": "May 2021",
	  "Iter": "84"
	},
	{
	  "Volume": "856",
	  "MID": "CONSUMER_FINANCE",
	  "Month": "May 2021",
	  "Iter": "85"
	},
	{
	  "Volume": "23870334",
	  "MID": "UPI",
	  "Month": "June 2021",
	  "Iter": "86"
	},
	{
	  "Volume": "23626766",
	  "MID": "CARD",
	  "Month": "June 2021",
	  "Iter": "87"
	},
	{
	  "Volume": "14303968",
	  "MID": "WALLET",
	  "Month": "June 2021",
	  "Iter": "88"
	},
	{
	  "Volume": "5234654",
	  "MID": "NB",
	  "Month": "June 2021",
	  "Iter": "89"
	},
	{
	  "Volume": "1600",
	  "MID": "REWARD",
	  "Month": "June 2021",
	  "Iter": "90"
	},
	{
	  "Volume": "25311113",
	  "MID": "UPI",
	  "Month": "July 2021",
	  "Iter": "91"
	},
	{
	  "Volume": "24648635",
	  "MID": "CARD",
	  "Month": "July 2021",
	  "Iter": "92"
	},
	{
	  "Volume": "13692506",
	  "MID": "WALLET",
	  "Month": "July 2021",
	  "Iter": "93"
	},
	{
	  "Volume": "5399948",
	  "MID": "NB",
	  "Month": "July 2021",
	  "Iter": "94"
	},
	{
	  "Volume": "1250",
	  "MID": "CONSUMER_FINANCE",
	  "Month": "July 2021",
	  "Iter": "95"
	},
	{
	  "Volume": "28501653",
	  "MID": "UPI",
	  "Month": "August 2021",
	  "Iter": "96"
	},
	{
	  "Volume": "25258961",
	  "MID": "CARD",
	  "Month": "August 2021",
	  "Iter": "97"
	},
	{
	  "Volume": "13052476",
	  "MID": "WALLET",
	  "Month": "August 2021",
	  "Iter": "98"
	},
	{
	  "Volume": "5215166",
	  "MID": "NB",
	  "Month": "August 2021",
	  "Iter": "99"
	},
	{
	  "Volume": "1503",
	  "MID": "CONSUMER_FINANCE",
	  "Month": "August 2021",
	  "Iter": "100"
	},
	{
	  "Volume": "31719586",
	  "MID": "UPI",
	  "Month": "September 2021",
	  "Iter": "101"
	},
	{
	  "Volume": "25565958",
	  "MID": "CARD",
	  "Month": "September 2021",
	  "Iter": "102"
	},
	{
	  "Volume": "14828632",
	  "MID": "WALLET",
	  "Month": "September 2021",
	  "Iter": "103"
	},
	{
	  "Volume": "5098475",
	  "MID": "NB",
	  "Month": "September 2021",
	  "Iter": "104"
	},
	{
	  "Volume": "1574",
	  "MID": "CONSUMER_FINANCE",
	  "Month": "September 2021",
	  "Iter": "105"
	},
	{
	  "Volume": "39344997",
	  "MID": "UPI",
	  "Month": "October 2021",
	  "Iter": "106"
	},
	{
	  "Volume": "28174857",
	  "MID": "CARD",
	  "Month": "October 2021",
	  "Iter": "107"
	},
	{
	  "Volume": "16715366",
	  "MID": "WALLET",
	  "Month": "October 2021",
	  "Iter": "108"
	},
	{
	  "Volume": "5503583",
	  "MID": "NB",
	  "Month": "October 2021",
	  "Iter": "109"
	},
	{
	  "Volume": "2965",
	  "MID": "CASH",
	  "Month": "October 2021",
	  "Iter": "110"
	},
	{
	  "Volume": "41620667",
	  "MID": "UPI",
	  "Month": "November 2021",
	  "Iter": "111"
	},
	{
	  "Volume": "29529655",
	  "MID": "CARD",
	  "Month": "November 2021",
	  "Iter": "112"
	},
	{
	  "Volume": "14711246",
	  "MID": "WALLET",
	  "Month": "November 2021",
	  "Iter": "113"
	},
	{
	  "Volume": "4900785",
	  "MID": "NB",
	  "Month": "November 2021",
	  "Iter": "114"
	},
	{
	  "Volume": "153580",
	  "MID": "CASH",
	  "Month": "November 2021",
	  "Iter": "115"
	},
	{
	  "Volume": "48529963",
	  "MID": "UPI",
	  "Month": "December 2021",
	  "Iter": "116"
	},
	{
	  "Volume": "32634994",
	  "MID": "CARD",
	  "Month": "December 2021",
	  "Iter": "117"
	},
	{
	  "Volume": "15766131",
	  "MID": "WALLET",
	  "Month": "December 2021",
	  "Iter": "118"
	},
	{
	  "Volume": "5162271",
	  "MID": "NB",
	  "Month": "December 2021",
	  "Iter": "119"
	},
	{
	  "Volume": "527139",
	  "MID": "CASH",
	  "Month": "December 2021",
	  "Iter": "120"
	},
	{
	  "Volume": "50070727",
	  "MID": "UPI",
	  "Month": "January 2022",
	  "Iter": "121"
	},
	{
	  "Volume": "32876320",
	  "MID": "CARD",
	  "Month": "January 2022",
	  "Iter": "122"
	},
	{
	  "Volume": "15624934",
	  "MID": "WALLET",
	  "Month": "January 2022",
	  "Iter": "123"
	},
	{
	  "Volume": "5042978",
	  "MID": "NB",
	  "Month": "January 2022",
	  "Iter": "124"
	},
	{
	  "Volume": "1199009",
	  "MID": "CASH",
	  "Month": "January 2022",
	  "Iter": "125"
	},
	{
	  "Volume": "35820500",
	  "MID": "UPI",
	  "Month": "February 2022",
	  "Iter": "126"
	},
	{
	  "Volume": "22786472",
	  "MID": "CARD",
	  "Month": "February 2022",
	  "Iter": "127"
	},
	{
	  "Volume": "11505395",
	  "MID": "WALLET",
	  "Month": "February 2022",
	  "Iter": "128"
	},
	{
	  "Volume": "3317670",
	  "MID": "NB",
	  "Month": "February 2022",
	  "Iter": "129"
	},
	{
	  "Volume": "976321",
	  "MID": "CASH",
	  "Month": "February 2022",
	  "Iter": "130"
	}
  ]