[
	{
	  "Volume": "8680502",
	  "MID": "SBI",
	  "Month": "January 2020",
	  "Iter": "1"
	},
	{
	  "Volume": "7739168",
	  "MID": "GOOGLE PAY UPI APP",
	  "Month": "January 2020",
	  "Iter": "2"
	},
	{
	  "Volume": "7545615",
	  "MID": "PHONEPE UPI APP",
	  "Month": "January 2020",
	  "Iter": "3"
	},
	{
	  "Volume": "6637599",
	  "MID": "HDFC",
	  "Month": "January 2020",
	  "Iter": "4"
	},
	{
	  "Volume": "4015809",
	  "MID": "ICICI",
	  "Month": "January 2020",
	  "Iter": "5"
	},
	{
	  "Volume": "3249726",
	  "MID": "PAYTM",
	  "Month": "January 2020",
	  "Iter": "6"
	},
	{
	  "Volume": "2417450",
	  "MID": "AXIS",
	  "Month": "January 2020",
	  "Iter": "7"
	},
	{
	  "Volume": "1794676",
	  "MID": "GOOGLEPAY",
	  "Month": "January 2020",
	  "Iter": "8"
	},
	{
	  "Volume": "1571019",
	  "MID": "PAYTM UPI APP",
	  "Month": "January 2020",
	  "Iter": "9"
	},
	{
	  "Volume": "1495039",
	  "MID": "Unknown",
	  "Month": "January 2020",
	  "Iter": "10"
	},
	{
	  "Volume": "7499863",
	  "MID": "GOOGLE PAY UPI APP",
	  "Month": "February 2020",
	  "Iter": "11"
	},
	{
	  "Volume": "5639085",
	  "MID": "HDFC",
	  "Month": "February 2020",
	  "Iter": "12"
	},
	{
	  "Volume": "5327486",
	  "MID": "SBI",
	  "Month": "February 2020",
	  "Iter": "13"
	},
	{
	  "Volume": "4810319",
	  "MID": "PHONEPE UPI APP",
	  "Month": "February 2020",
	  "Iter": "14"
	},
	{
	  "Volume": "3389039",
	  "MID": "ICICI",
	  "Month": "February 2020",
	  "Iter": "15"
	},
	{
	  "Volume": "3309811",
	  "MID": "PAYTM",
	  "Month": "February 2020",
	  "Iter": "16"
	},
	{
	  "Volume": "1810556",
	  "MID": "AXIS",
	  "Month": "February 2020",
	  "Iter": "17"
	},
	{
	  "Volume": "1532737",
	  "MID": "PAYTM UPI APP",
	  "Month": "February 2020",
	  "Iter": "18"
	},
	{
	  "Volume": "1396937",
	  "MID": "PHONEPE",
	  "Month": "February 2020",
	  "Iter": "19"
	},
	{
	  "Volume": "1358181",
	  "MID": "AMAZONPAY",
	  "Month": "February 2020",
	  "Iter": "20"
	},
	{
	  "Volume": "5849353",
	  "MID": "GOOGLE PAY UPI APP",
	  "Month": "March 2020",
	  "Iter": "21"
	},
	{
	  "Volume": "4702226",
	  "MID": "HDFC",
	  "Month": "March 2020",
	  "Iter": "22"
	},
	{
	  "Volume": "4476338",
	  "MID": "SBI",
	  "Month": "March 2020",
	  "Iter": "23"
	},
	{
	  "Volume": "3706603",
	  "MID": "PAYTM",
	  "Month": "March 2020",
	  "Iter": "24"
	},
	{
	  "Volume": "2937739",
	  "MID": "ICICI",
	  "Month": "March 2020",
	  "Iter": "25"
	},
	{
	  "Volume": "2153056",
	  "MID": "PHONEPE UPI APP",
	  "Month": "March 2020",
	  "Iter": "26"
	},
	{
	  "Volume": "1506819",
	  "MID": "AXIS",
	  "Month": "March 2020",
	  "Iter": "27"
	},
	{
	  "Volume": "1330708",
	  "MID": "PAYTM UPI APP",
	  "Month": "March 2020",
	  "Iter": "28"
	},
	{
	  "Volume": "1194416",
	  "MID": "PHONEPE",
	  "Month": "March 2020",
	  "Iter": "29"
	},
	{
	  "Volume": "1055744",
	  "MID": "GOOGLEPAY",
	  "Month": "March 2020",
	  "Iter": "30"
	},
	{
	  "Volume": "7066356",
	  "MID": "PAYTM",
	  "Month": "April 2020",
	  "Iter": "31"
	},
	{
	  "Volume": "3807752",
	  "MID": "SBI",
	  "Month": "April 2020",
	  "Iter": "32"
	},
	{
	  "Volume": "3391936",
	  "MID": "GOOGLE PAY UPI APP",
	  "Month": "April 2020",
	  "Iter": "33"
	},
	{
	  "Volume": "2916307",
	  "MID": "HDFC",
	  "Month": "April 2020",
	  "Iter": "34"
	},
	{
	  "Volume": "2445403",
	  "MID": "PHONEPE",
	  "Month": "April 2020",
	  "Iter": "35"
	},
	{
	  "Volume": "1943781",
	  "MID": "ICICI",
	  "Month": "April 2020",
	  "Iter": "36"
	},
	{
	  "Volume": "1404709",
	  "MID": "PHONEPE UPI APP",
	  "Month": "April 2020",
	  "Iter": "37"
	},
	{
	  "Volume": "1065711",
	  "MID": "AXIS",
	  "Month": "April 2020",
	  "Iter": "38"
	},
	{
	  "Volume": "935944",
	  "MID": "CRED_INAPP",
	  "Month": "April 2020",
	  "Iter": "39"
	},
	{
	  "Volume": "790840",
	  "MID": "PAYTM UPI APP",
	  "Month": "April 2020",
	  "Iter": "40"
	},
	{
	  "Volume": "8074151",
	  "MID": "PAYTM",
	  "Month": "May 2020",
	  "Iter": "41"
	},
	{
	  "Volume": "4597784",
	  "MID": "SBI",
	  "Month": "May 2020",
	  "Iter": "42"
	},
	{
	  "Volume": "3892907",
	  "MID": "GOOGLE PAY UPI APP",
	  "Month": "May 2020",
	  "Iter": "43"
	},
	{
	  "Volume": "3531997",
	  "MID": "HDFC",
	  "Month": "May 2020",
	  "Iter": "44"
	},
	{
	  "Volume": "3407731",
	  "MID": "PHONEPE",
	  "Month": "May 2020",
	  "Iter": "45"
	},
	{
	  "Volume": "2319611",
	  "MID": "ICICI",
	  "Month": "May 2020",
	  "Iter": "46"
	},
	{
	  "Volume": "1540670",
	  "MID": "PHONEPE UPI APP",
	  "Month": "May 2020",
	  "Iter": "47"
	},
	{
	  "Volume": "1259516",
	  "MID": "AXIS",
	  "Month": "May 2020",
	  "Iter": "48"
	},
	{
	  "Volume": "1128045",
	  "MID": "CRED_INAPP",
	  "Month": "May 2020",
	  "Iter": "49"
	},
	{
	  "Volume": "1081914",
	  "MID": "PAYTM UPI APP",
	  "Month": "May 2020",
	  "Iter": "50"
	},
	{
	  "Volume": "7000920",
	  "MID": "PAYTM",
	  "Month": "June 2020",
	  "Iter": "51"
	},
	{
	  "Volume": "4597198",
	  "MID": "SBI",
	  "Month": "June 2020",
	  "Iter": "52"
	},
	{
	  "Volume": "3950395",
	  "MID": "GOOGLE PAY UPI APP",
	  "Month": "June 2020",
	  "Iter": "53"
	},
	{
	  "Volume": "3779658",
	  "MID": "HDFC",
	  "Month": "June 2020",
	  "Iter": "54"
	},
	{
	  "Volume": "3632010",
	  "MID": "PHONEPE",
	  "Month": "June 2020",
	  "Iter": "55"
	},
	{
	  "Volume": "2463669",
	  "MID": "ICICI",
	  "Month": "June 2020",
	  "Iter": "56"
	},
	{
	  "Volume": "1375919",
	  "MID": "PHONEPE UPI APP",
	  "Month": "June 2020",
	  "Iter": "57"
	},
	{
	  "Volume": "1339083",
	  "MID": "AXIS",
	  "Month": "June 2020",
	  "Iter": "58"
	},
	{
	  "Volume": "1156048",
	  "MID": "CRED_INAPP",
	  "Month": "June 2020",
	  "Iter": "59"
	},
	{
	  "Volume": "1103087",
	  "MID": "PAYTM UPI APP",
	  "Month": "June 2020",
	  "Iter": "60"
	},
	{
	  "Volume": "6639213",
	  "MID": "PAYTM",
	  "Month": "July 2020",
	  "Iter": "61"
	},
	{
	  "Volume": "5113275",
	  "MID": "SBI",
	  "Month": "July 2020",
	  "Iter": "62"
	},
	{
	  "Volume": "4513624",
	  "MID": "GOOGLE PAY UPI APP",
	  "Month": "July 2020",
	  "Iter": "63"
	},
	{
	  "Volume": "4233771",
	  "MID": "HDFC",
	  "Month": "July 2020",
	  "Iter": "64"
	},
	{
	  "Volume": "4061028",
	  "MID": "PHONEPE",
	  "Month": "July 2020",
	  "Iter": "65"
	},
	{
	  "Volume": "2708528",
	  "MID": "ICICI",
	  "Month": "July 2020",
	  "Iter": "66"
	},
	{
	  "Volume": "1709292",
	  "MID": "PHONEPE UPI APP",
	  "Month": "July 2020",
	  "Iter": "67"
	},
	{
	  "Volume": "1498806",
	  "MID": "AXIS",
	  "Month": "July 2020",
	  "Iter": "68"
	},
	{
	  "Volume": "1290804",
	  "MID": "CRED_INAPP",
	  "Month": "July 2020",
	  "Iter": "69"
	},
	{
	  "Volume": "1215691",
	  "MID": "PAYTM UPI APP",
	  "Month": "July 2020",
	  "Iter": "70"
	},
	{
	  "Volume": "6398798",
	  "MID": "PAYTM",
	  "Month": "August 2020",
	  "Iter": "71"
	},
	{
	  "Volume": "5664838",
	  "MID": "SBI",
	  "Month": "August 2020",
	  "Iter": "72"
	},
	{
	  "Volume": "4292668",
	  "MID": "HDFC",
	  "Month": "August 2020",
	  "Iter": "73"
	},
	{
	  "Volume": "4223644",
	  "MID": "PHONEPE",
	  "Month": "August 2020",
	  "Iter": "74"
	},
	{
	  "Volume": "4160272",
	  "MID": "GOOGLE PAY UPI APP",
	  "Month": "August 2020",
	  "Iter": "75"
	},
	{
	  "Volume": "2942734",
	  "MID": "ICICI",
	  "Month": "August 2020",
	  "Iter": "76"
	},
	{
	  "Volume": "1892715",
	  "MID": "PHONEPE UPI APP",
	  "Month": "August 2020",
	  "Iter": "77"
	},
	{
	  "Volume": "1622141",
	  "MID": "CRED_INAPP",
	  "Month": "August 2020",
	  "Iter": "78"
	},
	{
	  "Volume": "1566479",
	  "MID": "AXIS",
	  "Month": "August 2020",
	  "Iter": "79"
	},
	{
	  "Volume": "1280770",
	  "MID": "PAYTM UPI APP",
	  "Month": "August 2020",
	  "Iter": "80"
	},
	{
	  "Volume": "7339755",
	  "MID": "PAYTM",
	  "Month": "September 2020",
	  "Iter": "81"
	},
	{
	  "Volume": "5682018",
	  "MID": "GOOGLE PAY UPI APP",
	  "Month": "September 2020",
	  "Iter": "82"
	},
	{
	  "Volume": "5470429",
	  "MID": "SBI",
	  "Month": "September 2020",
	  "Iter": "83"
	},
	{
	  "Volume": "5037118",
	  "MID": "PHONEPE",
	  "Month": "September 2020",
	  "Iter": "84"
	},
	{
	  "Volume": "4571647",
	  "MID": "HDFC",
	  "Month": "September 2020",
	  "Iter": "85"
	},
	{
	  "Volume": "3062731",
	  "MID": "ICICI",
	  "Month": "September 2020",
	  "Iter": "86"
	},
	{
	  "Volume": "2649135",
	  "MID": "PHONEPE UPI APP",
	  "Month": "September 2020",
	  "Iter": "87"
	},
	{
	  "Volume": "1859366",
	  "MID": "CRED_INAPP",
	  "Month": "September 2020",
	  "Iter": "88"
	},
	{
	  "Volume": "1667753",
	  "MID": "AXIS",
	  "Month": "September 2020",
	  "Iter": "89"
	},
	{
	  "Volume": "1221798",
	  "MID": "PAYTM UPI APP",
	  "Month": "September 2020",
	  "Iter": "90"
	},
	{
	  "Volume": "9604925",
	  "MID": "PAYTM",
	  "Month": "October 2020",
	  "Iter": "91"
	},
	{
	  "Volume": "8128597",
	  "MID": "GOOGLE PAY UPI APP",
	  "Month": "October 2020",
	  "Iter": "92"
	},
	{
	  "Volume": "6349442",
	  "MID": "PHONEPE",
	  "Month": "October 2020",
	  "Iter": "93"
	},
	{
	  "Volume": "5467323",
	  "MID": "SBI",
	  "Month": "October 2020",
	  "Iter": "94"
	},
	{
	  "Volume": "5044419",
	  "MID": "HDFC",
	  "Month": "October 2020",
	  "Iter": "95"
	},
	{
	  "Volume": "4027820",
	  "MID": "PHONEPE UPI APP",
	  "Month": "October 2020",
	  "Iter": "96"
	},
	{
	  "Volume": "3171882",
	  "MID": "ICICI",
	  "Month": "October 2020",
	  "Iter": "97"
	},
	{
	  "Volume": "2817904",
	  "MID": "CRED_INAPP",
	  "Month": "October 2020",
	  "Iter": "98"
	},
	{
	  "Volume": "1716329",
	  "MID": "AXIS",
	  "Month": "October 2020",
	  "Iter": "99"
	},
	{
	  "Volume": "1548145",
	  "MID": "PAYTM UPI APP",
	  "Month": "October 2020",
	  "Iter": "100"
	},
	{
	  "Volume": "7301562",
	  "MID": "GOOGLE PAY UPI APP",
	  "Month": "November 2020",
	  "Iter": "101"
	},
	{
	  "Volume": "6071825",
	  "MID": "PAYTM",
	  "Month": "November 2020",
	  "Iter": "102"
	},
	{
	  "Volume": "5049829",
	  "MID": "SBI",
	  "Month": "November 2020",
	  "Iter": "103"
	},
	{
	  "Volume": "5045844",
	  "MID": "HDFC",
	  "Month": "November 2020",
	  "Iter": "104"
	},
	{
	  "Volume": "4470095",
	  "MID": "PHONEPE",
	  "Month": "November 2020",
	  "Iter": "105"
	},
	{
	  "Volume": "3379585",
	  "MID": "PHONEPE UPI APP",
	  "Month": "November 2020",
	  "Iter": "106"
	},
	{
	  "Volume": "3179670",
	  "MID": "ICICI",
	  "Month": "November 2020",
	  "Iter": "107"
	},
	{
	  "Volume": "1617147",
	  "MID": "AXIS",
	  "Month": "November 2020",
	  "Iter": "108"
	},
	{
	  "Volume": "1277158",
	  "MID": "PAYTM UPI APP",
	  "Month": "November 2020",
	  "Iter": "109"
	},
	{
	  "Volume": "959459",
	  "MID": "ZETA",
	  "Month": "November 2020",
	  "Iter": "110"
	},
	{
	  "Volume": "7682654",
	  "MID": "GOOGLE PAY UPI APP",
	  "Month": "December 2020",
	  "Iter": "111"
	},
	{
	  "Volume": "5451343",
	  "MID": "SBI",
	  "Month": "December 2020",
	  "Iter": "112"
	},
	{
	  "Volume": "5266558",
	  "MID": "HDFC",
	  "Month": "December 2020",
	  "Iter": "113"
	},
	{
	  "Volume": "4937477",
	  "MID": "PAYTM",
	  "Month": "December 2020",
	  "Iter": "114"
	},
	{
	  "Volume": "3657985",
	  "MID": "PHONEPE",
	  "Month": "December 2020",
	  "Iter": "115"
	},
	{
	  "Volume": "3501366",
	  "MID": "PHONEPE UPI APP",
	  "Month": "December 2020",
	  "Iter": "116"
	},
	{
	  "Volume": "3396204",
	  "MID": "ICICI",
	  "Month": "December 2020",
	  "Iter": "117"
	},
	{
	  "Volume": "1746208",
	  "MID": "AXIS",
	  "Month": "December 2020",
	  "Iter": "118"
	},
	{
	  "Volume": "1107729",
	  "MID": "ZETA",
	  "Month": "December 2020",
	  "Iter": "119"
	},
	{
	  "Volume": "1087954",
	  "MID": "PAYTM UPI APP",
	  "Month": "December 2020",
	  "Iter": "120"
	},
	{
	  "Volume": "7500791",
	  "MID": "GOOGLE PAY UPI APP",
	  "Month": "January 2021",
	  "Iter": "121"
	},
	{
	  "Volume": "5376410",
	  "MID": "SBI",
	  "Month": "January 2021",
	  "Iter": "122"
	},
	{
	  "Volume": "5321424",
	  "MID": "HDFC",
	  "Month": "January 2021",
	  "Iter": "123"
	},
	{
	  "Volume": "4934121",
	  "MID": "PAYTM",
	  "Month": "January 2021",
	  "Iter": "124"
	},
	{
	  "Volume": "3730066",
	  "MID": "PHONEPE",
	  "Month": "January 2021",
	  "Iter": "125"
	},
	{
	  "Volume": "3534826",
	  "MID": "PHONEPE UPI APP",
	  "Month": "January 2021",
	  "Iter": "126"
	},
	{
	  "Volume": "3465315",
	  "MID": "ICICI",
	  "Month": "January 2021",
	  "Iter": "127"
	},
	{
	  "Volume": "1704647",
	  "MID": "AXIS",
	  "Month": "January 2021",
	  "Iter": "128"
	},
	{
	  "Volume": "1364447",
	  "MID": "CRED_INAPP",
	  "Month": "January 2021",
	  "Iter": "129"
	},
	{
	  "Volume": "1217424",
	  "MID": "ZETA",
	  "Month": "January 2021",
	  "Iter": "130"
	},
	{
	  "Volume": "7196877",
	  "MID": "GOOGLE PAY UPI APP",
	  "Month": "February 2021",
	  "Iter": "131"
	},
	{
	  "Volume": "4977784",
	  "MID": "HDFC",
	  "Month": "February 2021",
	  "Iter": "132"
	},
	{
	  "Volume": "4817931",
	  "MID": "SBI",
	  "Month": "February 2021",
	  "Iter": "133"
	},
	{
	  "Volume": "4198876",
	  "MID": "PAYTM",
	  "Month": "February 2021",
	  "Iter": "134"
	},
	{
	  "Volume": "3618181",
	  "MID": "PHONEPE",
	  "Month": "February 2021",
	  "Iter": "135"
	},
	{
	  "Volume": "3572577",
	  "MID": "PHONEPE UPI APP",
	  "Month": "February 2021",
	  "Iter": "136"
	},
	{
	  "Volume": "3081462",
	  "MID": "ICICI",
	  "Month": "February 2021",
	  "Iter": "137"
	},
	{
	  "Volume": "1547214",
	  "MID": "AXIS",
	  "Month": "February 2021",
	  "Iter": "138"
	},
	{
	  "Volume": "1197337",
	  "MID": "ZETA",
	  "Month": "February 2021",
	  "Iter": "139"
	},
	{
	  "Volume": "1101642",
	  "MID": "PAYTM UPI APP",
	  "Month": "February 2021",
	  "Iter": "140"
	},
	{
	  "Volume": "8540027",
	  "MID": "GOOGLE PAY UPI APP",
	  "Month": "March 2021",
	  "Iter": "141"
	},
	{
	  "Volume": "5808699",
	  "MID": "HDFC",
	  "Month": "March 2021",
	  "Iter": "142"
	},
	{
	  "Volume": "5587182",
	  "MID": "SBI",
	  "Month": "March 2021",
	  "Iter": "143"
	},
	{
	  "Volume": "4690228",
	  "MID": "PAYTM",
	  "Month": "March 2021",
	  "Iter": "144"
	},
	{
	  "Volume": "4420962",
	  "MID": "PHONEPE",
	  "Month": "March 2021",
	  "Iter": "145"
	},
	{
	  "Volume": "4389722",
	  "MID": "PHONEPE UPI APP",
	  "Month": "March 2021",
	  "Iter": "146"
	},
	{
	  "Volume": "3601809",
	  "MID": "ICICI",
	  "Month": "March 2021",
	  "Iter": "147"
	},
	{
	  "Volume": "1752586",
	  "MID": "AXIS",
	  "Month": "March 2021",
	  "Iter": "148"
	},
	{
	  "Volume": "1378478",
	  "MID": "ZETA",
	  "Month": "March 2021",
	  "Iter": "149"
	},
	{
	  "Volume": "1304227",
	  "MID": "PAYTM UPI APP",
	  "Month": "March 2021",
	  "Iter": "150"
	},
	{
	  "Volume": "8993003",
	  "MID": "GOOGLE PAY UPI APP",
	  "Month": "April 2021",
	  "Iter": "151"
	},
	{
	  "Volume": "8602015",
	  "MID": "PHONEPE",
	  "Month": "April 2021",
	  "Iter": "152"
	},
	{
	  "Volume": "7261017",
	  "MID": "PAYTM",
	  "Month": "April 2021",
	  "Iter": "153"
	},
	{
	  "Volume": "5663293",
	  "MID": "HDFC",
	  "Month": "April 2021",
	  "Iter": "154"
	},
	{
	  "Volume": "5440322",
	  "MID": "SBI",
	  "Month": "April 2021",
	  "Iter": "155"
	},
	{
	  "Volume": "5215203",
	  "MID": "PHONEPE UPI APP",
	  "Month": "April 2021",
	  "Iter": "156"
	},
	{
	  "Volume": "3570847",
	  "MID": "ICICI",
	  "Month": "April 2021",
	  "Iter": "157"
	},
	{
	  "Volume": "1832097",
	  "MID": "PAYTM UPI APP",
	  "Month": "April 2021",
	  "Iter": "158"
	},
	{
	  "Volume": "1786457",
	  "MID": "AXIS",
	  "Month": "April 2021",
	  "Iter": "159"
	},
	{
	  "Volume": "1316096",
	  "MID": "ZETA",
	  "Month": "April 2021",
	  "Iter": "160"
	},
	{
	  "Volume": "9323439",
	  "MID": "GOOGLE PAY UPI APP",
	  "Month": "May 2021",
	  "Iter": "161"
	},
	{
	  "Volume": "8257284",
	  "MID": "PHONEPE",
	  "Month": "May 2021",
	  "Iter": "162"
	},
	{
	  "Volume": "6751711",
	  "MID": "PAYTM",
	  "Month": "May 2021",
	  "Iter": "163"
	},
	{
	  "Volume": "6543357",
	  "MID": "PHONEPE UPI APP",
	  "Month": "May 2021",
	  "Iter": "164"
	},
	{
	  "Volume": "6112217",
	  "MID": "HDFC",
	  "Month": "May 2021",
	  "Iter": "165"
	},
	{
	  "Volume": "5903806",
	  "MID": "SBI",
	  "Month": "May 2021",
	  "Iter": "166"
	},
	{
	  "Volume": "3752088",
	  "MID": "ICICI",
	  "Month": "May 2021",
	  "Iter": "167"
	},
	{
	  "Volume": "2270849",
	  "MID": "PAYTM UPI APP",
	  "Month": "May 2021",
	  "Iter": "168"
	},
	{
	  "Volume": "2014071",
	  "MID": "AXIS",
	  "Month": "May 2021",
	  "Iter": "169"
	},
	{
	  "Volume": "1358150",
	  "MID": "ZETA",
	  "Month": "May 2021",
	  "Iter": "170"
	},
	{
	  "Volume": "9699027",
	  "MID": "GOOGLE PAY UPI APP",
	  "Month": "June 2021",
	  "Iter": "171"
	},
	{
	  "Volume": "7046340",
	  "MID": "PHONEPE UPI APP",
	  "Month": "June 2021",
	  "Iter": "172"
	},
	{
	  "Volume": "6835957",
	  "MID": "PHONEPE",
	  "Month": "June 2021",
	  "Iter": "173"
	},
	{
	  "Volume": "6055546",
	  "MID": "HDFC",
	  "Month": "June 2021",
	  "Iter": "174"
	},
	{
	  "Volume": "5895447",
	  "MID": "SBI",
	  "Month": "June 2021",
	  "Iter": "175"
	},
	{
	  "Volume": "5512360",
	  "MID": "PAYTM",
	  "Month": "June 2021",
	  "Iter": "176"
	},
	{
	  "Volume": "3799012",
	  "MID": "ICICI",
	  "Month": "June 2021",
	  "Iter": "177"
	},
	{
	  "Volume": "2408729",
	  "MID": "PAYTM UPI APP",
	  "Month": "June 2021",
	  "Iter": "178"
	},
	{
	  "Volume": "2053828",
	  "MID": "AXIS",
	  "Month": "June 2021",
	  "Iter": "179"
	},
	{
	  "Volume": "1492336",
	  "MID": "ZETA",
	  "Month": "June 2021",
	  "Iter": "180"
	},
	{
	  "Volume": "10704197",
	  "MID": "GOOGLE PAY UPI APP",
	  "Month": "July 2021",
	  "Iter": "181"
	},
	{
	  "Volume": "7445479",
	  "MID": "PHONEPE UPI APP",
	  "Month": "July 2021",
	  "Iter": "182"
	},
	{
	  "Volume": "6669135",
	  "MID": "PHONEPE",
	  "Month": "July 2021",
	  "Iter": "183"
	},
	{
	  "Volume": "6242958",
	  "MID": "HDFC",
	  "Month": "July 2021",
	  "Iter": "184"
	},
	{
	  "Volume": "6159594",
	  "MID": "SBI",
	  "Month": "July 2021",
	  "Iter": "185"
	},
	{
	  "Volume": "5137056",
	  "MID": "PAYTM",
	  "Month": "July 2021",
	  "Iter": "186"
	},
	{
	  "Volume": "4037795",
	  "MID": "ICICI",
	  "Month": "July 2021",
	  "Iter": "187"
	},
	{
	  "Volume": "2595128",
	  "MID": "PAYTM UPI APP",
	  "Month": "July 2021",
	  "Iter": "188"
	},
	{
	  "Volume": "2129159",
	  "MID": "AXIS",
	  "Month": "July 2021",
	  "Iter": "189"
	},
	{
	  "Volume": "1674790",
	  "MID": "ZETA",
	  "Month": "July 2021",
	  "Iter": "190"
	},
	{
	  "Volume": "11772481",
	  "MID": "GOOGLE PAY UPI APP",
	  "Month": "August 2021",
	  "Iter": "191"
	},
	{
	  "Volume": "7959608",
	  "MID": "PHONEPE UPI APP",
	  "Month": "August 2021",
	  "Iter": "192"
	},
	{
	  "Volume": "6357540",
	  "MID": "HDFC",
	  "Month": "August 2021",
	  "Iter": "193"
	},
	{
	  "Volume": "6277362",
	  "MID": "PHONEPE",
	  "Month": "August 2021",
	  "Iter": "194"
	},
	{
	  "Volume": "6223866",
	  "MID": "SBI",
	  "Month": "August 2021",
	  "Iter": "195"
	},
	{
	  "Volume": "4769341",
	  "MID": "PAYTM",
	  "Month": "August 2021",
	  "Iter": "196"
	},
	{
	  "Volume": "4209702",
	  "MID": "ICICI",
	  "Month": "August 2021",
	  "Iter": "197"
	},
	{
	  "Volume": "3068428",
	  "MID": "PAYTM UPI APP",
	  "Month": "August 2021",
	  "Iter": "198"
	},
	{
	  "Volume": "2104108",
	  "MID": "AXIS",
	  "Month": "August 2021",
	  "Iter": "199"
	},
	{
	  "Volume": "1709005",
	  "MID": "ZETA",
	  "Month": "August 2021",
	  "Iter": "200"
	},
	{
	  "Volume": "12955304",
	  "MID": "GOOGLE PAY UPI APP",
	  "Month": "September 2021",
	  "Iter": "201"
	},
	{
	  "Volume": "9051220",
	  "MID": "PHONEPE UPI APP",
	  "Month": "September 2021",
	  "Iter": "202"
	},
	{
	  "Volume": "6960821",
	  "MID": "PHONEPE",
	  "Month": "September 2021",
	  "Iter": "203"
	},
	{
	  "Volume": "6318353",
	  "MID": "HDFC",
	  "Month": "September 2021",
	  "Iter": "204"
	},
	{
	  "Volume": "6100640",
	  "MID": "SBI",
	  "Month": "September 2021",
	  "Iter": "205"
	},
	{
	  "Volume": "5667390",
	  "MID": "PAYTM",
	  "Month": "September 2021",
	  "Iter": "206"
	},
	{
	  "Volume": "4257165",
	  "MID": "ICICI",
	  "Month": "September 2021",
	  "Iter": "207"
	},
	{
	  "Volume": "4052852",
	  "MID": "PAYTM UPI APP",
	  "Month": "September 2021",
	  "Iter": "208"
	},
	{
	  "Volume": "2223997",
	  "MID": "AXIS",
	  "Month": "September 2021",
	  "Iter": "209"
	},
	{
	  "Volume": "1740481",
	  "MID": "ZETA",
	  "Month": "September 2021",
	  "Iter": "210"
	},
	{
	  "Volume": "14923935",
	  "MID": "GOOGLE PAY UPI APP",
	  "Month": "October 2021",
	  "Iter": "211"
	},
	{
	  "Volume": "11823044",
	  "MID": "PHONEPE UPI APP",
	  "Month": "October 2021",
	  "Iter": "212"
	},
	{
	  "Volume": "7422836",
	  "MID": "PHONEPE",
	  "Month": "October 2021",
	  "Iter": "213"
	},
	{
	  "Volume": "6450479",
	  "MID": "SBI",
	  "Month": "October 2021",
	  "Iter": "214"
	},
	{
	  "Volume": "6024678",
	  "MID": "PAYTM",
	  "Month": "October 2021",
	  "Iter": "215"
	},
	{
	  "Volume": "5115717",
	  "MID": "PAYTM UPI APP",
	  "Month": "October 2021",
	  "Iter": "216"
	},
	{
	  "Volume": "4674953",
	  "MID": "HDFC",
	  "Month": "October 2021",
	  "Iter": "217"
	},
	{
	  "Volume": "3454661",
	  "MID": "ICICI",
	  "Month": "October 2021",
	  "Iter": "218"
	},
	{
	  "Volume": "2229929",
	  "MID": "HDFC BANK",
	  "Month": "October 2021",
	  "Iter": "219"
	},
	{
	  "Volume": "1903062",
	  "MID": "ZETA",
	  "Month": "October 2021",
	  "Iter": "220"
	},
	{
	  "Volume": "14814959",
	  "MID": "GOOGLE PAY UPI APP",
	  "Month": "November 2021",
	  "Iter": "221"
	},
	{
	  "Volume": "12681934",
	  "MID": "PHONEPE UPI APP",
	  "Month": "November 2021",
	  "Iter": "222"
	},
	{
	  "Volume": "6465462",
	  "MID": "SBI",
	  "Month": "November 2021",
	  "Iter": "223"
	},
	{
	  "Volume": "5579090",
	  "MID": "PHONEPE",
	  "Month": "November 2021",
	  "Iter": "224"
	},
	{
	  "Volume": "5565086",
	  "MID": "HDFC BANK",
	  "Month": "November 2021",
	  "Iter": "225"
	},
	{
	  "Volume": "5275959",
	  "MID": "PAYTM UPI APP",
	  "Month": "November 2021",
	  "Iter": "226"
	},
	{
	  "Volume": "4949086",
	  "MID": "PAYTM",
	  "Month": "November 2021",
	  "Iter": "227"
	},
	{
	  "Volume": "4250057",
	  "MID": "ICICI BANK",
	  "Month": "November 2021",
	  "Iter": "228"
	},
	{
	  "Volume": "2562737",
	  "MID": "CRED_INAPP",
	  "Month": "November 2021",
	  "Iter": "229"
	},
	{
	  "Volume": "2337069",
	  "MID": "AXIS BANK",
	  "Month": "November 2021",
	  "Iter": "230"
	},
	{
	  "Volume": "16191664",
	  "MID": "GOOGLE PAY UPI APP",
	  "Month": "December 2021",
	  "Iter": "231"
	},
	{
	  "Volume": "14341056",
	  "MID": "PHONEPE UPI APP",
	  "Month": "December 2021",
	  "Iter": "232"
	},
	{
	  "Volume": "6949482",
	  "MID": "SBI",
	  "Month": "December 2021",
	  "Iter": "233"
	},
	{
	  "Volume": "6122896",
	  "MID": "HDFC BANK",
	  "Month": "December 2021",
	  "Iter": "234"
	},
	{
	  "Volume": "5833510",
	  "MID": "PAYTM UPI APP",
	  "Month": "December 2021",
	  "Iter": "235"
	},
	{
	  "Volume": "5130929",
	  "MID": "PHONEPE",
	  "Month": "December 2021",
	  "Iter": "236"
	},
	{
	  "Volume": "4703762",
	  "MID": "PAYTM",
	  "Month": "December 2021",
	  "Iter": "237"
	},
	{
	  "Volume": "4280472",
	  "MID": "ICICI BANK",
	  "Month": "December 2021",
	  "Iter": "238"
	},
	{
	  "Volume": "3549963",
	  "MID": "CRED_INAPP",
	  "Month": "December 2021",
	  "Iter": "239"
	},
	{
	  "Volume": "2823537",
	  "MID": "GOOGLEPAY",
	  "Month": "December 2021",
	  "Iter": "240"
	},
	{
	  "Volume": "16086965",
	  "MID": "GOOGLE PAY UPI APP",
	  "Month": "January 2022",
	  "Iter": "241"
	},
	{
	  "Volume": "14676691",
	  "MID": "PHONEPE UPI APP",
	  "Month": "January 2022",
	  "Iter": "242"
	},
	{
	  "Volume": "6994641",
	  "MID": "SBI",
	  "Month": "January 2022",
	  "Iter": "243"
	},
	{
	  "Volume": "6269296",
	  "MID": "PAYTM UPI APP",
	  "Month": "January 2022",
	  "Iter": "244"
	},
	{
	  "Volume": "6139422",
	  "MID": "HDFC BANK",
	  "Month": "January 2022",
	  "Iter": "245"
	},
	{
	  "Volume": "5617106",
	  "MID": "CRED_INAPP",
	  "Month": "January 2022",
	  "Iter": "246"
	},
	{
	  "Volume": "5523818",
	  "MID": "PHONEPE",
	  "Month": "January 2022",
	  "Iter": "247"
	},
	{
	  "Volume": "4967395",
	  "MID": "PAYTM",
	  "Month": "January 2022",
	  "Iter": "248"
	},
	{
	  "Volume": "3950774",
	  "MID": "ICICI BANK",
	  "Month": "January 2022",
	  "Iter": "249"
	},
	{
	  "Volume": "2567102",
	  "MID": "AXIS BANK",
	  "Month": "January 2022",
	  "Iter": "250"
	},
	{
	  "Volume": "12133031",
	  "MID": "GOOGLE PAY UPI APP",
	  "Month": "February 2022",
	  "Iter": "251"
	},
	{
	  "Volume": "11696985",
	  "MID": "PHONEPE UPI APP",
	  "Month": "February 2022",
	  "Iter": "252"
	},
	{
	  "Volume": "4562654",
	  "MID": "SBI",
	  "Month": "February 2022",
	  "Iter": "253"
	},
	{
	  "Volume": "4535958",
	  "MID": "PAYTM UPI APP",
	  "Month": "February 2022",
	  "Iter": "254"
	},
	{
	  "Volume": "4230863",
	  "MID": "PHONEPE",
	  "Month": "February 2022",
	  "Iter": "255"
	},
	{
	  "Volume": "4188503",
	  "MID": "HDFC BANK",
	  "Month": "February 2022",
	  "Iter": "256"
	},
	{
	  "Volume": "3489966",
	  "MID": "PAYTM",
	  "Month": "February 2022",
	  "Iter": "257"
	},
	{
	  "Volume": "2775364",
	  "MID": "ICICI BANK",
	  "Month": "February 2022",
	  "Iter": "258"
	},
	{
	  "Volume": "1820733",
	  "MID": "CRED_INAPP",
	  "Month": "February 2022",
	  "Iter": "259"
	},
	{
	  "Volume": "1782732",
	  "MID": "AXIS BANK",
	  "Month": "February 2022",
	  "Iter": "260"
	}
  ]