[
	{
	  "Volume": "10567877",
	  "MID": "PAYU",
	  "Month": "January 2020",
	  "Iter": "1"
	},
	{
	  "Volume": "7485191",
	  "MID": "RAZORPAY",
	  "Month": "January 2020",
	  "Iter": "2"
	},
	{
	  "Volume": "6983543",
	  "MID": "CYBERSOURCE",
	  "Month": "January 2020",
	  "Iter": "3"
	},
	{
	  "Volume": "5757044",
	  "MID": "ICICI_UPI",
	  "Month": "January 2020",
	  "Iter": "4"
	},
	{
	  "Volume": "5716328",
	  "MID": "PAYTM",
	  "Month": "January 2020",
	  "Iter": "5"
	},
	{
	  "Volume": "5495115",
	  "MID": "YESBANK_UPI",
	  "Month": "January 2020",
	  "Iter": "6"
	},
	{
	  "Volume": "4303165",
	  "MID": "AXIS_UPI",
	  "Month": "January 2020",
	  "Iter": "7"
	},
	{
	  "Volume": "3243778",
	  "MID": "BILLDESK",
	  "Month": "January 2020",
	  "Iter": "8"
	},
	{
	  "Volume": "1928330",
	  "MID": "TPSL",
	  "Month": "January 2020",
	  "Iter": "9"
	},
	{
	  "Volume": "1875742",
	  "MID": "CCAVENUE_V2",
	  "Month": "January 2020",
	  "Iter": "10"
	},
	{
	  "Volume": "7965266",
	  "MID": "PAYU",
	  "Month": "February 2020",
	  "Iter": "11"
	},
	{
	  "Volume": "6626160",
	  "MID": "YESBANK_UPI",
	  "Month": "February 2020",
	  "Iter": "12"
	},
	{
	  "Volume": "6406410",
	  "MID": "PAYTM",
	  "Month": "February 2020",
	  "Iter": "13"
	},
	{
	  "Volume": "5065063",
	  "MID": "CYBERSOURCE",
	  "Month": "February 2020",
	  "Iter": "14"
	},
	{
	  "Volume": "4024694",
	  "MID": "ICICI_UPI",
	  "Month": "February 2020",
	  "Iter": "15"
	},
	{
	  "Volume": "3943774",
	  "MID": "RAZORPAY",
	  "Month": "February 2020",
	  "Iter": "16"
	},
	{
	  "Volume": "3532230",
	  "MID": "AXIS_UPI",
	  "Month": "February 2020",
	  "Iter": "17"
	},
	{
	  "Volume": "2932347",
	  "MID": "BILLDESK",
	  "Month": "February 2020",
	  "Iter": "18"
	},
	{
	  "Volume": "1507231",
	  "MID": "GOCASHFREE",
	  "Month": "February 2020",
	  "Iter": "19"
	},
	{
	  "Volume": "1355398",
	  "MID": "AMAZONPAY",
	  "Month": "February 2020",
	  "Iter": "20"
	},
	{
	  "Volume": "7209094",
	  "MID": "PAYU",
	  "Month": "March 2020",
	  "Iter": "21"
	},
	{
	  "Volume": "6408116",
	  "MID": "PAYTM",
	  "Month": "March 2020",
	  "Iter": "22"
	},
	{
	  "Volume": "5355947",
	  "MID": "RAZORPAY",
	  "Month": "March 2020",
	  "Iter": "23"
	},
	{
	  "Volume": "3299256",
	  "MID": "ICICI_UPI",
	  "Month": "March 2020",
	  "Iter": "24"
	},
	{
	  "Volume": "3294491",
	  "MID": "CYBERSOURCE",
	  "Month": "March 2020",
	  "Iter": "25"
	},
	{
	  "Volume": "2820301",
	  "MID": "BILLDESK",
	  "Month": "March 2020",
	  "Iter": "26"
	},
	{
	  "Volume": "2713945",
	  "MID": "AXIS_UPI",
	  "Month": "March 2020",
	  "Iter": "27"
	},
	{
	  "Volume": "1521503",
	  "MID": "YESBANK_UPI",
	  "Month": "March 2020",
	  "Iter": "28"
	},
	{
	  "Volume": "1300451",
	  "MID": "PAYTM_V2",
	  "Month": "March 2020",
	  "Iter": "29"
	},
	{
	  "Volume": "1055259",
	  "MID": "GOOGLEPAY",
	  "Month": "March 2020",
	  "Iter": "30"
	},
	{
	  "Volume": "9188017",
	  "MID": "PAYTM",
	  "Month": "April 2020",
	  "Iter": "31"
	},
	{
	  "Volume": "5125439",
	  "MID": "PAYU",
	  "Month": "April 2020",
	  "Iter": "32"
	},
	{
	  "Volume": "3185589",
	  "MID": "RAZORPAY",
	  "Month": "April 2020",
	  "Iter": "33"
	},
	{
	  "Volume": "2818513",
	  "MID": "PAYTM_V2",
	  "Month": "April 2020",
	  "Iter": "34"
	},
	{
	  "Volume": "2377153",
	  "MID": "BILLDESK",
	  "Month": "April 2020",
	  "Iter": "35"
	},
	{
	  "Volume": "2296993",
	  "MID": "ICICI_UPI",
	  "Month": "April 2020",
	  "Iter": "36"
	},
	{
	  "Volume": "1649919",
	  "MID": "PHONEPE",
	  "Month": "April 2020",
	  "Iter": "37"
	},
	{
	  "Volume": "1604331",
	  "MID": "GOCASHFREE",
	  "Month": "April 2020",
	  "Iter": "38"
	},
	{
	  "Volume": "1489544",
	  "MID": "CYBERSOURCE",
	  "Month": "April 2020",
	  "Iter": "39"
	},
	{
	  "Volume": "1333585",
	  "MID": "AXIS_UPI",
	  "Month": "April 2020",
	  "Iter": "40"
	},
	{
	  "Volume": "10295863",
	  "MID": "PAYTM",
	  "Month": "May 2020",
	  "Iter": "41"
	},
	{
	  "Volume": "7645006",
	  "MID": "PAYU",
	  "Month": "May 2020",
	  "Iter": "42"
	},
	{
	  "Volume": "4066417",
	  "MID": "PAYTM_V2",
	  "Month": "May 2020",
	  "Iter": "43"
	},
	{
	  "Volume": "3503859",
	  "MID": "RAZORPAY",
	  "Month": "May 2020",
	  "Iter": "44"
	},
	{
	  "Volume": "2393291",
	  "MID": "GOCASHFREE",
	  "Month": "May 2020",
	  "Iter": "45"
	},
	{
	  "Volume": "2355251",
	  "MID": "PHONEPE",
	  "Month": "May 2020",
	  "Iter": "46"
	},
	{
	  "Volume": "2197043",
	  "MID": "ICICI_UPI",
	  "Month": "May 2020",
	  "Iter": "47"
	},
	{
	  "Volume": "2149060",
	  "MID": "BILLDESK",
	  "Month": "May 2020",
	  "Iter": "48"
	},
	{
	  "Volume": "1422526",
	  "MID": "AXIS_UPI",
	  "Month": "May 2020",
	  "Iter": "49"
	},
	{
	  "Volume": "1376485",
	  "MID": "HSBC_UPI",
	  "Month": "May 2020",
	  "Iter": "50"
	},
	{
	  "Volume": "9234405",
	  "MID": "PAYTM",
	  "Month": "June 2020",
	  "Iter": "51"
	},
	{
	  "Volume": "7961274",
	  "MID": "PAYU",
	  "Month": "June 2020",
	  "Iter": "52"
	},
	{
	  "Volume": "4305459",
	  "MID": "RAZORPAY",
	  "Month": "June 2020",
	  "Iter": "53"
	},
	{
	  "Volume": "3361499",
	  "MID": "PAYTM_V2",
	  "Month": "June 2020",
	  "Iter": "54"
	},
	{
	  "Volume": "2599291",
	  "MID": "PHONEPE",
	  "Month": "June 2020",
	  "Iter": "55"
	},
	{
	  "Volume": "1937603",
	  "MID": "BILLDESK",
	  "Month": "June 2020",
	  "Iter": "56"
	},
	{
	  "Volume": "1833126",
	  "MID": "ICICI_UPI",
	  "Month": "June 2020",
	  "Iter": "57"
	},
	{
	  "Volume": "1828635",
	  "MID": "CYBERSOURCE",
	  "Month": "June 2020",
	  "Iter": "58"
	},
	{
	  "Volume": "1672461",
	  "MID": "GOCASHFREE",
	  "Month": "June 2020",
	  "Iter": "59"
	},
	{
	  "Volume": "1633468",
	  "MID": "AXIS_UPI",
	  "Month": "June 2020",
	  "Iter": "60"
	},
	{
	  "Volume": "8905222",
	  "MID": "PAYTM",
	  "Month": "July 2020",
	  "Iter": "61"
	},
	{
	  "Volume": "8902584",
	  "MID": "PAYU",
	  "Month": "July 2020",
	  "Iter": "62"
	},
	{
	  "Volume": "5336049",
	  "MID": "RAZORPAY",
	  "Month": "July 2020",
	  "Iter": "63"
	},
	{
	  "Volume": "3983073",
	  "MID": "PAYTM_V2",
	  "Month": "July 2020",
	  "Iter": "64"
	},
	{
	  "Volume": "2873423",
	  "MID": "PHONEPE",
	  "Month": "July 2020",
	  "Iter": "65"
	},
	{
	  "Volume": "2355870",
	  "MID": "CYBERSOURCE",
	  "Month": "July 2020",
	  "Iter": "66"
	},
	{
	  "Volume": "2223855",
	  "MID": "BILLDESK",
	  "Month": "July 2020",
	  "Iter": "67"
	},
	{
	  "Volume": "2067611",
	  "MID": "ICICI_UPI",
	  "Month": "July 2020",
	  "Iter": "68"
	},
	{
	  "Volume": "1755079",
	  "MID": "AXIS_UPI",
	  "Month": "July 2020",
	  "Iter": "69"
	},
	{
	  "Volume": "1370885",
	  "MID": "HSBC_UPI",
	  "Month": "July 2020",
	  "Iter": "70"
	},
	{
	  "Volume": "10736880",
	  "MID": "PAYU",
	  "Month": "August 2020",
	  "Iter": "71"
	},
	{
	  "Volume": "8352833",
	  "MID": "PAYTM",
	  "Month": "August 2020",
	  "Iter": "72"
	},
	{
	  "Volume": "5813973",
	  "MID": "RAZORPAY",
	  "Month": "August 2020",
	  "Iter": "73"
	},
	{
	  "Volume": "3844601",
	  "MID": "PAYTM_V2",
	  "Month": "August 2020",
	  "Iter": "74"
	},
	{
	  "Volume": "2923788",
	  "MID": "PHONEPE",
	  "Month": "August 2020",
	  "Iter": "75"
	},
	{
	  "Volume": "2238607",
	  "MID": "BILLDESK",
	  "Month": "August 2020",
	  "Iter": "76"
	},
	{
	  "Volume": "2223710",
	  "MID": "CYBERSOURCE",
	  "Month": "August 2020",
	  "Iter": "77"
	},
	{
	  "Volume": "2141266",
	  "MID": "AXIS_UPI",
	  "Month": "August 2020",
	  "Iter": "78"
	},
	{
	  "Volume": "1833072",
	  "MID": "ICICI_UPI",
	  "Month": "August 2020",
	  "Iter": "79"
	},
	{
	  "Volume": "1511147",
	  "MID": "GOCASHFREE",
	  "Month": "August 2020",
	  "Iter": "80"
	},
	{
	  "Volume": "10346049",
	  "MID": "PAYTM",
	  "Month": "September 2020",
	  "Iter": "81"
	},
	{
	  "Volume": "9034938",
	  "MID": "PAYU",
	  "Month": "September 2020",
	  "Iter": "82"
	},
	{
	  "Volume": "6384823",
	  "MID": "RAZORPAY",
	  "Month": "September 2020",
	  "Iter": "83"
	},
	{
	  "Volume": "5846118",
	  "MID": "PAYTM_V2",
	  "Month": "September 2020",
	  "Iter": "84"
	},
	{
	  "Volume": "3658811",
	  "MID": "PHONEPE",
	  "Month": "September 2020",
	  "Iter": "85"
	},
	{
	  "Volume": "3443201",
	  "MID": "CYBERSOURCE",
	  "Month": "September 2020",
	  "Iter": "86"
	},
	{
	  "Volume": "2518501",
	  "MID": "AXIS_UPI",
	  "Month": "September 2020",
	  "Iter": "87"
	},
	{
	  "Volume": "2016410",
	  "MID": "BILLDESK",
	  "Month": "September 2020",
	  "Iter": "88"
	},
	{
	  "Volume": "1783252",
	  "MID": "GOCASHFREE",
	  "Month": "September 2020",
	  "Iter": "89"
	},
	{
	  "Volume": "1491420",
	  "MID": "ICICI_UPI",
	  "Month": "September 2020",
	  "Iter": "90"
	},
	{
	  "Volume": "12502004",
	  "MID": "PAYTM",
	  "Month": "October 2020",
	  "Iter": "91"
	},
	{
	  "Volume": "10647181",
	  "MID": "PAYU",
	  "Month": "October 2020",
	  "Iter": "92"
	},
	{
	  "Volume": "9464937",
	  "MID": "PAYTM_V2",
	  "Month": "October 2020",
	  "Iter": "93"
	},
	{
	  "Volume": "6077727",
	  "MID": "RAZORPAY",
	  "Month": "October 2020",
	  "Iter": "94"
	},
	{
	  "Volume": "5048699",
	  "MID": "PHONEPE",
	  "Month": "October 2020",
	  "Iter": "95"
	},
	{
	  "Volume": "3849258",
	  "MID": "AXIS_UPI",
	  "Month": "October 2020",
	  "Iter": "96"
	},
	{
	  "Volume": "3805217",
	  "MID": "CYBERSOURCE",
	  "Month": "October 2020",
	  "Iter": "97"
	},
	{
	  "Volume": "1882945",
	  "MID": "BILLDESK",
	  "Month": "October 2020",
	  "Iter": "98"
	},
	{
	  "Volume": "1449213",
	  "MID": "ICICI_UPI",
	  "Month": "October 2020",
	  "Iter": "99"
	},
	{
	  "Volume": "1135923",
	  "MID": "TPSL",
	  "Month": "October 2020",
	  "Iter": "100"
	},
	{
	  "Volume": "10653666",
	  "MID": "PAYU",
	  "Month": "November 2020",
	  "Iter": "101"
	},
	{
	  "Volume": "7992193",
	  "MID": "PAYTM",
	  "Month": "November 2020",
	  "Iter": "102"
	},
	{
	  "Volume": "7696787",
	  "MID": "PAYTM_V2",
	  "Month": "November 2020",
	  "Iter": "103"
	},
	{
	  "Volume": "5731739",
	  "MID": "RAZORPAY",
	  "Month": "November 2020",
	  "Iter": "104"
	},
	{
	  "Volume": "4197190",
	  "MID": "CYBERSOURCE",
	  "Month": "November 2020",
	  "Iter": "105"
	},
	{
	  "Volume": "3448171",
	  "MID": "PHONEPE",
	  "Month": "November 2020",
	  "Iter": "106"
	},
	{
	  "Volume": "1789735",
	  "MID": "AXIS_UPI",
	  "Month": "November 2020",
	  "Iter": "107"
	},
	{
	  "Volume": "1711896",
	  "MID": "ICICI_UPI",
	  "Month": "November 2020",
	  "Iter": "108"
	},
	{
	  "Volume": "1653476",
	  "MID": "BILLDESK",
	  "Month": "November 2020",
	  "Iter": "109"
	},
	{
	  "Volume": "1289929",
	  "MID": "YESBANK_UPI",
	  "Month": "November 2020",
	  "Iter": "110"
	},
	{
	  "Volume": "11029854",
	  "MID": "PAYU",
	  "Month": "December 2020",
	  "Iter": "111"
	},
	{
	  "Volume": "6981320",
	  "MID": "PAYTM",
	  "Month": "December 2020",
	  "Iter": "112"
	},
	{
	  "Volume": "6588420",
	  "MID": "PAYTM_V2",
	  "Month": "December 2020",
	  "Iter": "113"
	},
	{
	  "Volume": "6155421",
	  "MID": "RAZORPAY",
	  "Month": "December 2020",
	  "Iter": "114"
	},
	{
	  "Volume": "4837682",
	  "MID": "CYBERSOURCE",
	  "Month": "December 2020",
	  "Iter": "115"
	},
	{
	  "Volume": "3033749",
	  "MID": "PHONEPE",
	  "Month": "December 2020",
	  "Iter": "116"
	},
	{
	  "Volume": "1960544",
	  "MID": "YESBANK_UPI",
	  "Month": "December 2020",
	  "Iter": "117"
	},
	{
	  "Volume": "1572919",
	  "MID": "AXIS_UPI",
	  "Month": "December 2020",
	  "Iter": "118"
	},
	{
	  "Volume": "1500454",
	  "MID": "ICICI_UPI",
	  "Month": "December 2020",
	  "Iter": "119"
	},
	{
	  "Volume": "1361469",
	  "MID": "BILLDESK",
	  "Month": "December 2020",
	  "Iter": "120"
	},
	{
	  "Volume": "11099404",
	  "MID": "PAYU",
	  "Month": "January 2021",
	  "Iter": "121"
	},
	{
	  "Volume": "6893042",
	  "MID": "RAZORPAY",
	  "Month": "January 2021",
	  "Iter": "122"
	},
	{
	  "Volume": "6780858",
	  "MID": "PAYTM",
	  "Month": "January 2021",
	  "Iter": "123"
	},
	{
	  "Volume": "5780271",
	  "MID": "PAYTM_V2",
	  "Month": "January 2021",
	  "Iter": "124"
	},
	{
	  "Volume": "4074566",
	  "MID": "YESBANK_UPI",
	  "Month": "January 2021",
	  "Iter": "125"
	},
	{
	  "Volume": "4005073",
	  "MID": "CYBERSOURCE",
	  "Month": "January 2021",
	  "Iter": "126"
	},
	{
	  "Volume": "3493324",
	  "MID": "PHONEPE",
	  "Month": "January 2021",
	  "Iter": "127"
	},
	{
	  "Volume": "2482853",
	  "MID": "AXIS_UPI",
	  "Month": "January 2021",
	  "Iter": "128"
	},
	{
	  "Volume": "1491851",
	  "MID": "BILLDESK",
	  "Month": "January 2021",
	  "Iter": "129"
	},
	{
	  "Volume": "1217424",
	  "MID": "SODEXO",
	  "Month": "January 2021",
	  "Iter": "130"
	},
	{
	  "Volume": "9246403",
	  "MID": "PAYU",
	  "Month": "February 2021",
	  "Iter": "131"
	},
	{
	  "Volume": "6884837",
	  "MID": "RAZORPAY",
	  "Month": "February 2021",
	  "Iter": "132"
	},
	{
	  "Volume": "5355391",
	  "MID": "PAYTM_V2",
	  "Month": "February 2021",
	  "Iter": "133"
	},
	{
	  "Volume": "5153190",
	  "MID": "PAYTM",
	  "Month": "February 2021",
	  "Iter": "134"
	},
	{
	  "Volume": "4504758",
	  "MID": "CYBERSOURCE",
	  "Month": "February 2021",
	  "Iter": "135"
	},
	{
	  "Volume": "3408530",
	  "MID": "PHONEPE",
	  "Month": "February 2021",
	  "Iter": "136"
	},
	{
	  "Volume": "2377462",
	  "MID": "AXIS_UPI",
	  "Month": "February 2021",
	  "Iter": "137"
	},
	{
	  "Volume": "2170162",
	  "MID": "YESBANK_UPI",
	  "Month": "February 2021",
	  "Iter": "138"
	},
	{
	  "Volume": "1808999",
	  "MID": "BILLDESK",
	  "Month": "February 2021",
	  "Iter": "139"
	},
	{
	  "Volume": "1197337",
	  "MID": "SODEXO",
	  "Month": "February 2021",
	  "Iter": "140"
	},
	{
	  "Volume": "11483223",
	  "MID": "PAYU",
	  "Month": "March 2021",
	  "Iter": "141"
	},
	{
	  "Volume": "7711920",
	  "MID": "RAZORPAY",
	  "Month": "March 2021",
	  "Iter": "142"
	},
	{
	  "Volume": "7068078",
	  "MID": "PAYTM_V2",
	  "Month": "March 2021",
	  "Iter": "143"
	},
	{
	  "Volume": "6086929",
	  "MID": "PAYTM",
	  "Month": "March 2021",
	  "Iter": "144"
	},
	{
	  "Volume": "4630912",
	  "MID": "CYBERSOURCE",
	  "Month": "March 2021",
	  "Iter": "145"
	},
	{
	  "Volume": "4202426",
	  "MID": "PHONEPE",
	  "Month": "March 2021",
	  "Iter": "146"
	},
	{
	  "Volume": "2336237",
	  "MID": "AXIS_UPI",
	  "Month": "March 2021",
	  "Iter": "147"
	},
	{
	  "Volume": "1857715",
	  "MID": "BILLDESK",
	  "Month": "March 2021",
	  "Iter": "148"
	},
	{
	  "Volume": "1829837",
	  "MID": "YESBANK_UPI",
	  "Month": "March 2021",
	  "Iter": "149"
	},
	{
	  "Volume": "1604980",
	  "MID": "ICICI_UPI",
	  "Month": "March 2021",
	  "Iter": "150"
	},
	{
	  "Volume": "11508170",
	  "MID": "PAYTM_V2",
	  "Month": "April 2021",
	  "Iter": "151"
	},
	{
	  "Volume": "9115309",
	  "MID": "PAYU",
	  "Month": "April 2021",
	  "Iter": "152"
	},
	{
	  "Volume": "8550792",
	  "MID": "PAYTM",
	  "Month": "April 2021",
	  "Iter": "153"
	},
	{
	  "Volume": "8285098",
	  "MID": "PHONEPE",
	  "Month": "April 2021",
	  "Iter": "154"
	},
	{
	  "Volume": "7794586",
	  "MID": "RAZORPAY",
	  "Month": "April 2021",
	  "Iter": "155"
	},
	{
	  "Volume": "4767333",
	  "MID": "CYBERSOURCE",
	  "Month": "April 2021",
	  "Iter": "156"
	},
	{
	  "Volume": "2095476",
	  "MID": "YESBANK_UPI",
	  "Month": "April 2021",
	  "Iter": "157"
	},
	{
	  "Volume": "1873167",
	  "MID": "AXIS_UPI",
	  "Month": "April 2021",
	  "Iter": "158"
	},
	{
	  "Volume": "1528212",
	  "MID": "ICICI_UPI",
	  "Month": "April 2021",
	  "Iter": "159"
	},
	{
	  "Volume": "1433472",
	  "MID": "BILLDESK",
	  "Month": "April 2021",
	  "Iter": "160"
	},
	{
	  "Volume": "14036984",
	  "MID": "PAYTM_V2",
	  "Month": "May 2021",
	  "Iter": "161"
	},
	{
	  "Volume": "12067519",
	  "MID": "RAZORPAY",
	  "Month": "May 2021",
	  "Iter": "162"
	},
	{
	  "Volume": "8465576",
	  "MID": "PAYU",
	  "Month": "May 2021",
	  "Iter": "163"
	},
	{
	  "Volume": "8062304",
	  "MID": "PAYTM",
	  "Month": "May 2021",
	  "Iter": "164"
	},
	{
	  "Volume": "7891676",
	  "MID": "PHONEPE",
	  "Month": "May 2021",
	  "Iter": "165"
	},
	{
	  "Volume": "4419849",
	  "MID": "CYBERSOURCE",
	  "Month": "May 2021",
	  "Iter": "166"
	},
	{
	  "Volume": "2124356",
	  "MID": "YESBANK_UPI",
	  "Month": "May 2021",
	  "Iter": "167"
	},
	{
	  "Volume": "2074475",
	  "MID": "ICICI_UPI",
	  "Month": "May 2021",
	  "Iter": "168"
	},
	{
	  "Volume": "1527395",
	  "MID": "BILLDESK",
	  "Month": "May 2021",
	  "Iter": "169"
	},
	{
	  "Volume": "1358150",
	  "MID": "SODEXO",
	  "Month": "May 2021",
	  "Iter": "170"
	},
	{
	  "Volume": "13673030",
	  "MID": "PAYTM_V2",
	  "Month": "June 2021",
	  "Iter": "171"
	},
	{
	  "Volume": "12678639",
	  "MID": "RAZORPAY",
	  "Month": "June 2021",
	  "Iter": "172"
	},
	{
	  "Volume": "8461295",
	  "MID": "PAYU",
	  "Month": "June 2021",
	  "Iter": "173"
	},
	{
	  "Volume": "6547287",
	  "MID": "PHONEPE",
	  "Month": "June 2021",
	  "Iter": "174"
	},
	{
	  "Volume": "6446766",
	  "MID": "PAYTM",
	  "Month": "June 2021",
	  "Iter": "175"
	},
	{
	  "Volume": "4809718",
	  "MID": "CYBERSOURCE",
	  "Month": "June 2021",
	  "Iter": "176"
	},
	{
	  "Volume": "1944274",
	  "MID": "ICICI_UPI",
	  "Month": "June 2021",
	  "Iter": "177"
	},
	{
	  "Volume": "1715603",
	  "MID": "YESBANK_UPI",
	  "Month": "June 2021",
	  "Iter": "178"
	},
	{
	  "Volume": "1492336",
	  "MID": "SODEXO",
	  "Month": "June 2021",
	  "Iter": "179"
	},
	{
	  "Volume": "1250043",
	  "MID": "BILLDESK",
	  "Month": "June 2021",
	  "Iter": "180"
	},
	{
	  "Volume": "13891589",
	  "MID": "PAYTM_V2",
	  "Month": "July 2021",
	  "Iter": "181"
	},
	{
	  "Volume": "13456926",
	  "MID": "RAZORPAY",
	  "Month": "July 2021",
	  "Iter": "182"
	},
	{
	  "Volume": "9256558",
	  "MID": "PAYU",
	  "Month": "July 2021",
	  "Iter": "183"
	},
	{
	  "Volume": "6399640",
	  "MID": "PHONEPE",
	  "Month": "July 2021",
	  "Iter": "184"
	},
	{
	  "Volume": "5944193",
	  "MID": "PAYTM",
	  "Month": "July 2021",
	  "Iter": "185"
	},
	{
	  "Volume": "5592307",
	  "MID": "CYBERSOURCE",
	  "Month": "July 2021",
	  "Iter": "186"
	},
	{
	  "Volume": "1898013",
	  "MID": "ICICI_UPI",
	  "Month": "July 2021",
	  "Iter": "187"
	},
	{
	  "Volume": "1674790",
	  "MID": "SODEXO",
	  "Month": "July 2021",
	  "Iter": "188"
	},
	{
	  "Volume": "1370347",
	  "MID": "YESBANK_UPI",
	  "Month": "July 2021",
	  "Iter": "189"
	},
	{
	  "Volume": "1285913",
	  "MID": "AXIS_UPI",
	  "Month": "July 2021",
	  "Iter": "190"
	},
	{
	  "Volume": "14226211",
	  "MID": "RAZORPAY",
	  "Month": "August 2021",
	  "Iter": "191"
	},
	{
	  "Volume": "11951483",
	  "MID": "PAYTM_V2",
	  "Month": "August 2021",
	  "Iter": "192"
	},
	{
	  "Volume": "9100112",
	  "MID": "PAYU",
	  "Month": "August 2021",
	  "Iter": "193"
	},
	{
	  "Volume": "6720098",
	  "MID": "CYBERSOURCE",
	  "Month": "August 2021",
	  "Iter": "194"
	},
	{
	  "Volume": "5969284",
	  "MID": "PHONEPE",
	  "Month": "August 2021",
	  "Iter": "195"
	},
	{
	  "Volume": "5674982",
	  "MID": "PAYTM",
	  "Month": "August 2021",
	  "Iter": "196"
	},
	{
	  "Volume": "2735047",
	  "MID": "YESBANK_UPI",
	  "Month": "August 2021",
	  "Iter": "197"
	},
	{
	  "Volume": "2647295",
	  "MID": "YES_BIZ",
	  "Month": "August 2021",
	  "Iter": "198"
	},
	{
	  "Volume": "1860040",
	  "MID": "AXIS_UPI",
	  "Month": "August 2021",
	  "Iter": "199"
	},
	{
	  "Volume": "1709005",
	  "MID": "SODEXO",
	  "Month": "August 2021",
	  "Iter": "200"
	},
	{
	  "Volume": "16647696",
	  "MID": "RAZORPAY",
	  "Month": "September 2021",
	  "Iter": "201"
	},
	{
	  "Volume": "12352663",
	  "MID": "PAYTM_V2",
	  "Month": "September 2021",
	  "Iter": "202"
	},
	{
	  "Volume": "8289367",
	  "MID": "PAYU",
	  "Month": "September 2021",
	  "Iter": "203"
	},
	{
	  "Volume": "7407931",
	  "MID": "CYBERSOURCE",
	  "Month": "September 2021",
	  "Iter": "204"
	},
	{
	  "Volume": "6634551",
	  "MID": "PHONEPE",
	  "Month": "September 2021",
	  "Iter": "205"
	},
	{
	  "Volume": "6264354",
	  "MID": "PAYTM",
	  "Month": "September 2021",
	  "Iter": "206"
	},
	{
	  "Volume": "2888684",
	  "MID": "YES_BIZ",
	  "Month": "September 2021",
	  "Iter": "207"
	},
	{
	  "Volume": "2524502",
	  "MID": "AXIS_UPI",
	  "Month": "September 2021",
	  "Iter": "208"
	},
	{
	  "Volume": "2106637",
	  "MID": "ICICI_UPI",
	  "Month": "September 2021",
	  "Iter": "209"
	},
	{
	  "Volume": "1994563",
	  "MID": "YESBANK_UPI",
	  "Month": "September 2021",
	  "Iter": "210"
	},
	{
	  "Volume": "20005757",
	  "MID": "RAZORPAY",
	  "Month": "October 2021",
	  "Iter": "211"
	},
	{
	  "Volume": "12197725",
	  "MID": "PAYTM_V2",
	  "Month": "October 2021",
	  "Iter": "212"
	},
	{
	  "Volume": "10124770",
	  "MID": "PAYU",
	  "Month": "October 2021",
	  "Iter": "213"
	},
	{
	  "Volume": "8381877",
	  "MID": "CYBERSOURCE",
	  "Month": "October 2021",
	  "Iter": "214"
	},
	{
	  "Volume": "7117896",
	  "MID": "PHONEPE",
	  "Month": "October 2021",
	  "Iter": "215"
	},
	{
	  "Volume": "6411458",
	  "MID": "PAYTM",
	  "Month": "October 2021",
	  "Iter": "216"
	},
	{
	  "Volume": "4466182",
	  "MID": "YESBANK_UPI",
	  "Month": "October 2021",
	  "Iter": "217"
	},
	{
	  "Volume": "3152919",
	  "MID": "AXIS_UPI",
	  "Month": "October 2021",
	  "Iter": "218"
	},
	{
	  "Volume": "2467890",
	  "MID": "GOCASHFREE",
	  "Month": "October 2021",
	  "Iter": "219"
	},
	{
	  "Volume": "2330996",
	  "MID": "YES_BIZ",
	  "Month": "October 2021",
	  "Iter": "220"
	},
	{
	  "Volume": "22043359",
	  "MID": "RAZORPAY",
	  "Month": "November 2021",
	  "Iter": "221"
	},
	{
	  "Volume": "11613510",
	  "MID": "PAYTM_V2",
	  "Month": "November 2021",
	  "Iter": "222"
	},
	{
	  "Volume": "9612920",
	  "MID": "PAYU",
	  "Month": "November 2021",
	  "Iter": "223"
	},
	{
	  "Volume": "9562057",
	  "MID": "CYBERSOURCE",
	  "Month": "November 2021",
	  "Iter": "224"
	},
	{
	  "Volume": "5393362",
	  "MID": "PAYTM",
	  "Month": "November 2021",
	  "Iter": "225"
	},
	{
	  "Volume": "5314037",
	  "MID": "PHONEPE",
	  "Month": "November 2021",
	  "Iter": "226"
	},
	{
	  "Volume": "4754268",
	  "MID": "YESBANK_UPI",
	  "Month": "November 2021",
	  "Iter": "227"
	},
	{
	  "Volume": "4218591",
	  "MID": "GOCASHFREE",
	  "Month": "November 2021",
	  "Iter": "228"
	},
	{
	  "Volume": "3336573",
	  "MID": "AXIS_UPI",
	  "Month": "November 2021",
	  "Iter": "229"
	},
	{
	  "Volume": "2381585",
	  "MID": "ICICI_UPI",
	  "Month": "November 2021",
	  "Iter": "230"
	},
	{
	  "Volume": "24526405",
	  "MID": "RAZORPAY",
	  "Month": "December 2021",
	  "Iter": "231"
	},
	{
	  "Volume": "13224999",
	  "MID": "PAYTM_V2",
	  "Month": "December 2021",
	  "Iter": "232"
	},
	{
	  "Volume": "11852907",
	  "MID": "PAYU",
	  "Month": "December 2021",
	  "Iter": "233"
	},
	{
	  "Volume": "9204406",
	  "MID": "CYBERSOURCE",
	  "Month": "December 2021",
	  "Iter": "234"
	},
	{
	  "Volume": "6319041",
	  "MID": "GOCASHFREE",
	  "Month": "December 2021",
	  "Iter": "235"
	},
	{
	  "Volume": "5407865",
	  "MID": "YESBANK_UPI",
	  "Month": "December 2021",
	  "Iter": "236"
	},
	{
	  "Volume": "5217098",
	  "MID": "PAYTM",
	  "Month": "December 2021",
	  "Iter": "237"
	},
	{
	  "Volume": "4837779",
	  "MID": "AXIS_UPI",
	  "Month": "December 2021",
	  "Iter": "238"
	},
	{
	  "Volume": "4795665",
	  "MID": "PHONEPE",
	  "Month": "December 2021",
	  "Iter": "239"
	},
	{
	  "Volume": "2974323",
	  "MID": "ICICI_UPI",
	  "Month": "December 2021",
	  "Iter": "240"
	},
	{
	  "Volume": "22996577",
	  "MID": "RAZORPAY",
	  "Month": "January 2022",
	  "Iter": "241"
	},
	{
	  "Volume": "16499610",
	  "MID": "PAYTM_V2",
	  "Month": "January 2022",
	  "Iter": "242"
	},
	{
	  "Volume": "12360027",
	  "MID": "PAYU",
	  "Month": "January 2022",
	  "Iter": "243"
	},
	{
	  "Volume": "10159547",
	  "MID": "CYBERSOURCE",
	  "Month": "January 2022",
	  "Iter": "244"
	},
	{
	  "Volume": "7228652",
	  "MID": "YESBANK_UPI",
	  "Month": "January 2022",
	  "Iter": "245"
	},
	{
	  "Volume": "5474109",
	  "MID": "PAYTM",
	  "Month": "January 2022",
	  "Iter": "246"
	},
	{
	  "Volume": "5100008",
	  "MID": "PHONEPE",
	  "Month": "January 2022",
	  "Iter": "247"
	},
	{
	  "Volume": "4922611",
	  "MID": "GOCASHFREE",
	  "Month": "January 2022",
	  "Iter": "248"
	},
	{
	  "Volume": "3157918",
	  "MID": "ICICI_UPI",
	  "Month": "January 2022",
	  "Iter": "249"
	},
	{
	  "Volume": "2055702",
	  "MID": "SODEXO",
	  "Month": "January 2022",
	  "Iter": "250"
	},
	{
	  "Volume": "14730102",
	  "MID": "RAZORPAY",
	  "Month": "February 2022",
	  "Iter": "251"
	},
	{
	  "Volume": "11508078",
	  "MID": "PAYTM_V2",
	  "Month": "February 2022",
	  "Iter": "252"
	},
	{
	  "Volume": "7578360",
	  "MID": "PAYU",
	  "Month": "February 2022",
	  "Iter": "253"
	},
	{
	  "Volume": "7005745",
	  "MID": "CYBERSOURCE",
	  "Month": "February 2022",
	  "Iter": "254"
	},
	{
	  "Volume": "6565180",
	  "MID": "GOCASHFREE",
	  "Month": "February 2022",
	  "Iter": "255"
	},
	{
	  "Volume": "3883599",
	  "MID": "PHONEPE",
	  "Month": "February 2022",
	  "Iter": "256"
	},
	{
	  "Volume": "3473054",
	  "MID": "PAYTM",
	  "Month": "February 2022",
	  "Iter": "257"
	},
	{
	  "Volume": "3009574",
	  "MID": "YESBANK_UPI",
	  "Month": "February 2022",
	  "Iter": "258"
	},
	{
	  "Volume": "2114655",
	  "MID": "ICICI_UPI",
	  "Month": "February 2022",
	  "Iter": "259"
	},
	{
	  "Volume": "1447144",
	  "MID": "AXIS_UPI",
	  "Month": "February 2022",
	  "Iter": "260"
	}
  ]