[
	{
	  "Volume": "23870404",
	  "MID": "dream11",
	  "Month": "January 2020",
	  "Iter": "1"
	},
	{
	  "Volume": "10993969",
	  "MID": "com.swiggy",
	  "Month": "January 2020",
	  "Iter": "2"
	},
	{
	  "Volume": "4038001",
	  "MID": "dreamplug_live",
	  "Month": "January 2020",
	  "Iter": "3"
	},
	{
	  "Volume": "3317142",
	  "MID": "mplgaming",
	  "Month": "January 2020",
	  "Iter": "4"
	},
	{
	  "Volume": "2726005",
	  "MID": "olacabs",
	  "Month": "January 2020",
	  "Iter": "5"
	},
	{
	  "Volume": "1860971",
	  "MID": "bms",
	  "Month": "January 2020",
	  "Iter": "6"
	},
	{
	  "Volume": "1609910",
	  "MID": "MVA_PREPAID",
	  "Month": "January 2020",
	  "Iter": "7"
	},
	{
	  "Volume": "1272459",
	  "MID": "olacabs_main",
	  "Month": "January 2020",
	  "Iter": "8"
	},
	{
	  "Volume": "1145920",
	  "MID": "redbus_in",
	  "Month": "January 2020",
	  "Iter": "9"
	},
	{
	  "Volume": "1129907",
	  "MID": "myteam11",
	  "Month": "January 2020",
	  "Iter": "10"
	},
	{
	  "Volume": "11084338",
	  "MID": "dream11",
	  "Month": "February 2020",
	  "Iter": "11"
	},
	{
	  "Volume": "11084147",
	  "MID": "com.swiggy",
	  "Month": "February 2020",
	  "Iter": "12"
	},
	{
	  "Volume": "3843013",
	  "MID": "dreamplug_live",
	  "Month": "February 2020",
	  "Iter": "13"
	},
	{
	  "Volume": "3502825",
	  "MID": "mplgaming",
	  "Month": "February 2020",
	  "Iter": "14"
	},
	{
	  "Volume": "2728180",
	  "MID": "olacabs",
	  "Month": "February 2020",
	  "Iter": "15"
	},
	{
	  "Volume": "1697105",
	  "MID": "MVA_PREPAID",
	  "Month": "February 2020",
	  "Iter": "16"
	},
	{
	  "Volume": "1176059",
	  "MID": "olacabs_main",
	  "Month": "February 2020",
	  "Iter": "17"
	},
	{
	  "Volume": "1011879",
	  "MID": "myteam11",
	  "Month": "February 2020",
	  "Iter": "18"
	},
	{
	  "Volume": "1007302",
	  "MID": "redbus_in",
	  "Month": "February 2020",
	  "Iter": "19"
	},
	{
	  "Volume": "989773",
	  "MID": "MVA_POSTPAID",
	  "Month": "February 2020",
	  "Iter": "20"
	},
	{
	  "Volume": "8047177",
	  "MID": "com.swiggy",
	  "Month": "March 2020",
	  "Iter": "21"
	},
	{
	  "Volume": "4742433",
	  "MID": "dream11",
	  "Month": "March 2020",
	  "Iter": "22"
	},
	{
	  "Volume": "4125716",
	  "MID": "dreamplug_live",
	  "Month": "March 2020",
	  "Iter": "23"
	},
	{
	  "Volume": "3915188",
	  "MID": "mplgaming",
	  "Month": "March 2020",
	  "Iter": "24"
	},
	{
	  "Volume": "2215045",
	  "MID": "olacabs",
	  "Month": "March 2020",
	  "Iter": "25"
	},
	{
	  "Volume": "2139223",
	  "MID": "MVA_PREPAID",
	  "Month": "March 2020",
	  "Iter": "26"
	},
	{
	  "Volume": "1295562",
	  "MID": "gameskraft",
	  "Month": "March 2020",
	  "Iter": "27"
	},
	{
	  "Volume": "1164282",
	  "MID": "bigbasket",
	  "Month": "March 2020",
	  "Iter": "28"
	},
	{
	  "Volume": "1115446",
	  "MID": "MVA_POSTPAID",
	  "Month": "March 2020",
	  "Iter": "29"
	},
	{
	  "Volume": "950965",
	  "MID": "Grofers",
	  "Month": "March 2020",
	  "Iter": "30"
	},
	{
	  "Volume": "10304514",
	  "MID": "mplgaming",
	  "Month": "April 2020",
	  "Iter": "31"
	},
	{
	  "Volume": "3506195",
	  "MID": "com.swiggy",
	  "Month": "April 2020",
	  "Iter": "32"
	},
	{
	  "Volume": "3378272",
	  "MID": "dreamplug_live",
	  "Month": "April 2020",
	  "Iter": "33"
	},
	{
	  "Volume": "2573621",
	  "MID": "gameskraft",
	  "Month": "April 2020",
	  "Iter": "34"
	},
	{
	  "Volume": "2535032",
	  "MID": "MVA_PREPAID",
	  "Month": "April 2020",
	  "Iter": "35"
	},
	{
	  "Volume": "2322327",
	  "MID": "bigbasket",
	  "Month": "April 2020",
	  "Iter": "36"
	},
	{
	  "Volume": "1284272",
	  "MID": "MVA_POSTPAID",
	  "Month": "April 2020",
	  "Iter": "37"
	},
	{
	  "Volume": "986810",
	  "MID": "dream11",
	  "Month": "April 2020",
	  "Iter": "38"
	},
	{
	  "Volume": "909129",
	  "MID": "Grofers",
	  "Month": "April 2020",
	  "Iter": "39"
	},
	{
	  "Volume": "773220",
	  "MID": "vodafone_web",
	  "Month": "April 2020",
	  "Iter": "40"
	},
	{
	  "Volume": "12909573",
	  "MID": "mplgaming",
	  "Month": "May 2020",
	  "Iter": "41"
	},
	{
	  "Volume": "4873785",
	  "MID": "com.swiggy",
	  "Month": "May 2020",
	  "Iter": "42"
	},
	{
	  "Volume": "3414151",
	  "MID": "gameskraft",
	  "Month": "May 2020",
	  "Iter": "43"
	},
	{
	  "Volume": "3378982",
	  "MID": "dreamplug_live",
	  "Month": "May 2020",
	  "Iter": "44"
	},
	{
	  "Volume": "3036092",
	  "MID": "bigbasket",
	  "Month": "May 2020",
	  "Iter": "45"
	},
	{
	  "Volume": "2527394",
	  "MID": "MVA_PREPAID",
	  "Month": "May 2020",
	  "Iter": "46"
	},
	{
	  "Volume": "1592197",
	  "MID": "vodafone_web",
	  "Month": "May 2020",
	  "Iter": "47"
	},
	{
	  "Volume": "1341625",
	  "MID": "MVA_POSTPAID",
	  "Month": "May 2020",
	  "Iter": "48"
	},
	{
	  "Volume": "1215417",
	  "MID": "dream11",
	  "Month": "May 2020",
	  "Iter": "49"
	},
	{
	  "Volume": "961544",
	  "MID": "Grofers",
	  "Month": "May 2020",
	  "Iter": "50"
	},
	{
	  "Volume": "10489187",
	  "MID": "mplgaming",
	  "Month": "June 2020",
	  "Iter": "51"
	},
	{
	  "Volume": "5569141",
	  "MID": "com.swiggy",
	  "Month": "June 2020",
	  "Iter": "52"
	},
	{
	  "Volume": "3401829",
	  "MID": "gameskraft",
	  "Month": "June 2020",
	  "Iter": "53"
	},
	{
	  "Volume": "3327093",
	  "MID": "bigbasket",
	  "Month": "June 2020",
	  "Iter": "54"
	},
	{
	  "Volume": "3305417",
	  "MID": "dreamplug_live",
	  "Month": "June 2020",
	  "Iter": "55"
	},
	{
	  "Volume": "2316040",
	  "MID": "MVA_PREPAID",
	  "Month": "June 2020",
	  "Iter": "56"
	},
	{
	  "Volume": "1457255",
	  "MID": "dream11",
	  "Month": "June 2020",
	  "Iter": "57"
	},
	{
	  "Volume": "1421849",
	  "MID": "vodafone_web",
	  "Month": "June 2020",
	  "Iter": "58"
	},
	{
	  "Volume": "1329126",
	  "MID": "MVA_POSTPAID",
	  "Month": "June 2020",
	  "Iter": "59"
	},
	{
	  "Volume": "893896",
	  "MID": "Grofers",
	  "Month": "June 2020",
	  "Iter": "60"
	},
	{
	  "Volume": "9620281",
	  "MID": "mplgaming",
	  "Month": "July 2020",
	  "Iter": "61"
	},
	{
	  "Volume": "5921164",
	  "MID": "com.swiggy",
	  "Month": "July 2020",
	  "Iter": "62"
	},
	{
	  "Volume": "3946639",
	  "MID": "dreamplug_live",
	  "Month": "July 2020",
	  "Iter": "63"
	},
	{
	  "Volume": "3871154",
	  "MID": "gameskraft",
	  "Month": "July 2020",
	  "Iter": "64"
	},
	{
	  "Volume": "3721772",
	  "MID": "bigbasket",
	  "Month": "July 2020",
	  "Iter": "65"
	},
	{
	  "Volume": "2356470",
	  "MID": "MVA_PREPAID",
	  "Month": "July 2020",
	  "Iter": "66"
	},
	{
	  "Volume": "1750089",
	  "MID": "dream11",
	  "Month": "July 2020",
	  "Iter": "67"
	},
	{
	  "Volume": "1602147",
	  "MID": "vodafone_web",
	  "Month": "July 2020",
	  "Iter": "68"
	},
	{
	  "Volume": "1547277",
	  "MID": "MVA_POSTPAID",
	  "Month": "July 2020",
	  "Iter": "69"
	},
	{
	  "Volume": "976952",
	  "MID": "Grofers",
	  "Month": "July 2020",
	  "Iter": "70"
	},
	{
	  "Volume": "8971324",
	  "MID": "mplgaming",
	  "Month": "August 2020",
	  "Iter": "71"
	},
	{
	  "Volume": "6630745",
	  "MID": "com.swiggy",
	  "Month": "August 2020",
	  "Iter": "72"
	},
	{
	  "Volume": "4198394",
	  "MID": "gameskraft",
	  "Month": "August 2020",
	  "Iter": "73"
	},
	{
	  "Volume": "4140872",
	  "MID": "dreamplug_live",
	  "Month": "August 2020",
	  "Iter": "74"
	},
	{
	  "Volume": "3470859",
	  "MID": "bigbasket",
	  "Month": "August 2020",
	  "Iter": "75"
	},
	{
	  "Volume": "2281998",
	  "MID": "MVA_PREPAID",
	  "Month": "August 2020",
	  "Iter": "76"
	},
	{
	  "Volume": "1969654",
	  "MID": "dream11",
	  "Month": "August 2020",
	  "Iter": "77"
	},
	{
	  "Volume": "1548843",
	  "MID": "vodafone_web",
	  "Month": "August 2020",
	  "Iter": "78"
	},
	{
	  "Volume": "1492034",
	  "MID": "MVA_POSTPAID",
	  "Month": "August 2020",
	  "Iter": "79"
	},
	{
	  "Volume": "1168668",
	  "MID": "relianceretail",
	  "Month": "August 2020",
	  "Iter": "80"
	},
	{
	  "Volume": "9419078",
	  "MID": "mplgaming",
	  "Month": "September 2020",
	  "Iter": "81"
	},
	{
	  "Volume": "7882401",
	  "MID": "com.swiggy",
	  "Month": "September 2020",
	  "Iter": "82"
	},
	{
	  "Volume": "4800644",
	  "MID": "gameskraft",
	  "Month": "September 2020",
	  "Iter": "83"
	},
	{
	  "Volume": "4388123",
	  "MID": "dreamplug_live",
	  "Month": "September 2020",
	  "Iter": "84"
	},
	{
	  "Volume": "3348651",
	  "MID": "bigbasket",
	  "Month": "September 2020",
	  "Iter": "85"
	},
	{
	  "Volume": "2349974",
	  "MID": "vodafone_app",
	  "Month": "September 2020",
	  "Iter": "86"
	},
	{
	  "Volume": "1697756",
	  "MID": "dream11",
	  "Month": "September 2020",
	  "Iter": "87"
	},
	{
	  "Volume": "1653447",
	  "MID": "myteam11",
	  "Month": "September 2020",
	  "Iter": "88"
	},
	{
	  "Volume": "1457953",
	  "MID": "vodafone_web",
	  "Month": "September 2020",
	  "Iter": "89"
	},
	{
	  "Volume": "987846",
	  "MID": "relianceretail",
	  "Month": "September 2020",
	  "Iter": "90"
	},
	{
	  "Volume": "12042898",
	  "MID": "mplgaming",
	  "Month": "October 2020",
	  "Iter": "91"
	},
	{
	  "Volume": "8043874",
	  "MID": "com.swiggy",
	  "Month": "October 2020",
	  "Iter": "92"
	},
	{
	  "Volume": "6220418",
	  "MID": "dreamplug_live",
	  "Month": "October 2020",
	  "Iter": "93"
	},
	{
	  "Volume": "4395506",
	  "MID": "gameskraft",
	  "Month": "October 2020",
	  "Iter": "94"
	},
	{
	  "Volume": "4011147",
	  "MID": "vodafone_app",
	  "Month": "October 2020",
	  "Iter": "95"
	},
	{
	  "Volume": "3178176",
	  "MID": "bigbasket",
	  "Month": "October 2020",
	  "Iter": "96"
	},
	{
	  "Volume": "3041140",
	  "MID": "gamezy",
	  "Month": "October 2020",
	  "Iter": "97"
	},
	{
	  "Volume": "2614875",
	  "MID": "myteam11",
	  "Month": "October 2020",
	  "Iter": "98"
	},
	{
	  "Volume": "1454357",
	  "MID": "vodafone_web",
	  "Month": "October 2020",
	  "Iter": "99"
	},
	{
	  "Volume": "1334359",
	  "MID": "fanfight",
	  "Month": "October 2020",
	  "Iter": "100"
	},
	{
	  "Volume": "8012687",
	  "MID": "mplgaming",
	  "Month": "November 2020",
	  "Iter": "101"
	},
	{
	  "Volume": "8005219",
	  "MID": "com.swiggy",
	  "Month": "November 2020",
	  "Iter": "102"
	},
	{
	  "Volume": "4507474",
	  "MID": "dreamplug_live",
	  "Month": "November 2020",
	  "Iter": "103"
	},
	{
	  "Volume": "4403717",
	  "MID": "gameskraft",
	  "Month": "November 2020",
	  "Iter": "104"
	},
	{
	  "Volume": "4361881",
	  "MID": "vodafone_app",
	  "Month": "November 2020",
	  "Iter": "105"
	},
	{
	  "Volume": "2928274",
	  "MID": "bigbasket",
	  "Month": "November 2020",
	  "Iter": "106"
	},
	{
	  "Volume": "1333187",
	  "MID": "vodafone_web",
	  "Month": "November 2020",
	  "Iter": "107"
	},
	{
	  "Volume": "1216498",
	  "MID": "relianceretail",
	  "Month": "November 2020",
	  "Iter": "108"
	},
	{
	  "Volume": "1195423",
	  "MID": "myteam11",
	  "Month": "November 2020",
	  "Iter": "109"
	},
	{
	  "Volume": "1106690",
	  "MID": "gamezy",
	  "Month": "November 2020",
	  "Iter": "110"
	},
	{
	  "Volume": "8952776",
	  "MID": "com.swiggy",
	  "Month": "December 2020",
	  "Iter": "111"
	},
	{
	  "Volume": "6355007",
	  "MID": "mplgaming",
	  "Month": "December 2020",
	  "Iter": "112"
	},
	{
	  "Volume": "4805522",
	  "MID": "gameskraft",
	  "Month": "December 2020",
	  "Iter": "113"
	},
	{
	  "Volume": "4546093",
	  "MID": "vodafone_app",
	  "Month": "December 2020",
	  "Iter": "114"
	},
	{
	  "Volume": "4524130",
	  "MID": "dreamplug_live",
	  "Month": "December 2020",
	  "Iter": "115"
	},
	{
	  "Volume": "2938147",
	  "MID": "bigbasket",
	  "Month": "December 2020",
	  "Iter": "116"
	},
	{
	  "Volume": "1329585",
	  "MID": "vodafone_web",
	  "Month": "December 2020",
	  "Iter": "117"
	},
	{
	  "Volume": "1274496",
	  "MID": "relianceretail",
	  "Month": "December 2020",
	  "Iter": "118"
	},
	{
	  "Volume": "1088906",
	  "MID": "olacabs",
	  "Month": "December 2020",
	  "Iter": "119"
	},
	{
	  "Volume": "1023991",
	  "MID": "olacabs_main",
	  "Month": "December 2020",
	  "Iter": "120"
	},
	{
	  "Volume": "8837516",
	  "MID": "com.swiggy",
	  "Month": "January 2021",
	  "Iter": "121"
	},
	{
	  "Volume": "6467966",
	  "MID": "mplgaming",
	  "Month": "January 2021",
	  "Iter": "122"
	},
	{
	  "Volume": "5238475",
	  "MID": "gameskraft",
	  "Month": "January 2021",
	  "Iter": "123"
	},
	{
	  "Volume": "5215346",
	  "MID": "dreamplug_live",
	  "Month": "January 2021",
	  "Iter": "124"
	},
	{
	  "Volume": "4539814",
	  "MID": "vodafone_app",
	  "Month": "January 2021",
	  "Iter": "125"
	},
	{
	  "Volume": "2830379",
	  "MID": "bigbasket",
	  "Month": "January 2021",
	  "Iter": "126"
	},
	{
	  "Volume": "1299516",
	  "MID": "relianceretail",
	  "Month": "January 2021",
	  "Iter": "127"
	},
	{
	  "Volume": "1267888",
	  "MID": "vodafone_web",
	  "Month": "January 2021",
	  "Iter": "128"
	},
	{
	  "Volume": "1186240",
	  "MID": "olacabs",
	  "Month": "January 2021",
	  "Iter": "129"
	},
	{
	  "Volume": "1173230",
	  "MID": "ixigoprod",
	  "Month": "January 2021",
	  "Iter": "130"
	},
	{
	  "Volume": "8128084",
	  "MID": "com.swiggy",
	  "Month": "February 2021",
	  "Iter": "131"
	},
	{
	  "Volume": "5624792",
	  "MID": "mplgaming",
	  "Month": "February 2021",
	  "Iter": "132"
	},
	{
	  "Volume": "5094979",
	  "MID": "gameskraft",
	  "Month": "February 2021",
	  "Iter": "133"
	},
	{
	  "Volume": "4138384",
	  "MID": "vodafone_app",
	  "Month": "February 2021",
	  "Iter": "134"
	},
	{
	  "Volume": "3761911",
	  "MID": "dreamplug_live",
	  "Month": "February 2021",
	  "Iter": "135"
	},
	{
	  "Volume": "2583141",
	  "MID": "bigbasket",
	  "Month": "February 2021",
	  "Iter": "136"
	},
	{
	  "Volume": "1254279",
	  "MID": "ixigoprod",
	  "Month": "February 2021",
	  "Iter": "137"
	},
	{
	  "Volume": "1146589",
	  "MID": "olacabs",
	  "Month": "February 2021",
	  "Iter": "138"
	},
	{
	  "Volume": "1127470",
	  "MID": "olacabs_main",
	  "Month": "February 2021",
	  "Iter": "139"
	},
	{
	  "Volume": "1093988",
	  "MID": "vodafone_web",
	  "Month": "February 2021",
	  "Iter": "140"
	},
	{
	  "Volume": "9240129",
	  "MID": "com.swiggy",
	  "Month": "March 2021",
	  "Iter": "141"
	},
	{
	  "Volume": "6349231",
	  "MID": "gameskraft",
	  "Month": "March 2021",
	  "Iter": "142"
	},
	{
	  "Volume": "6209193",
	  "MID": "mplgaming",
	  "Month": "March 2021",
	  "Iter": "143"
	},
	{
	  "Volume": "4692498",
	  "MID": "vodafone_app",
	  "Month": "March 2021",
	  "Iter": "144"
	},
	{
	  "Volume": "4492448",
	  "MID": "dreamplug_live",
	  "Month": "March 2021",
	  "Iter": "145"
	},
	{
	  "Volume": "3628538",
	  "MID": "bigbasket",
	  "Month": "March 2021",
	  "Iter": "146"
	},
	{
	  "Volume": "1526491",
	  "MID": "bms",
	  "Month": "March 2021",
	  "Iter": "147"
	},
	{
	  "Volume": "1396179",
	  "MID": "ixigoprod",
	  "Month": "March 2021",
	  "Iter": "148"
	},
	{
	  "Volume": "1294541",
	  "MID": "olacabs",
	  "Month": "March 2021",
	  "Iter": "149"
	},
	{
	  "Volume": "1227670",
	  "MID": "vodafone_web",
	  "Month": "March 2021",
	  "Iter": "150"
	},
	{
	  "Volume": "11948177",
	  "MID": "mplgaming",
	  "Month": "April 2021",
	  "Iter": "151"
	},
	{
	  "Volume": "8620511",
	  "MID": "com.swiggy",
	  "Month": "April 2021",
	  "Iter": "152"
	},
	{
	  "Volume": "7007409",
	  "MID": "gameskraft",
	  "Month": "April 2021",
	  "Iter": "153"
	},
	{
	  "Volume": "4825515",
	  "MID": "bigbasket",
	  "Month": "April 2021",
	  "Iter": "154"
	},
	{
	  "Volume": "4650814",
	  "MID": "dreamplug_live",
	  "Month": "April 2021",
	  "Iter": "155"
	},
	{
	  "Volume": "4607380",
	  "MID": "vodafone_app",
	  "Month": "April 2021",
	  "Iter": "156"
	},
	{
	  "Volume": "1693264",
	  "MID": "gamezy",
	  "Month": "April 2021",
	  "Iter": "157"
	},
	{
	  "Volume": "1542636",
	  "MID": "relianceretail",
	  "Month": "April 2021",
	  "Iter": "158"
	},
	{
	  "Volume": "1270462",
	  "MID": "myteam11",
	  "Month": "April 2021",
	  "Iter": "159"
	},
	{
	  "Volume": "1161318",
	  "MID": "bms",
	  "Month": "April 2021",
	  "Iter": "160"
	},
	{
	  "Volume": "11294243",
	  "MID": "mplgaming",
	  "Month": "May 2021",
	  "Iter": "161"
	},
	{
	  "Volume": "9619249",
	  "MID": "com.swiggy",
	  "Month": "May 2021",
	  "Iter": "162"
	},
	{
	  "Volume": "9205513",
	  "MID": "gameskraft",
	  "Month": "May 2021",
	  "Iter": "163"
	},
	{
	  "Volume": "5404146",
	  "MID": "dreamplug_live",
	  "Month": "May 2021",
	  "Iter": "164"
	},
	{
	  "Volume": "4966813",
	  "MID": "vodafone_app",
	  "Month": "May 2021",
	  "Iter": "165"
	},
	{
	  "Volume": "4897574",
	  "MID": "bigbasket",
	  "Month": "May 2021",
	  "Iter": "166"
	},
	{
	  "Volume": "2236322",
	  "MID": "zupee",
	  "Month": "May 2021",
	  "Iter": "167"
	},
	{
	  "Volume": "1893661",
	  "MID": "relianceretail",
	  "Month": "May 2021",
	  "Iter": "168"
	},
	{
	  "Volume": "1449687",
	  "MID": "Grofers",
	  "Month": "May 2021",
	  "Iter": "169"
	},
	{
	  "Volume": "1217610",
	  "MID": "vodafone_web",
	  "Month": "May 2021",
	  "Iter": "170"
	},
	{
	  "Volume": "10780441",
	  "MID": "com.swiggy",
	  "Month": "June 2021",
	  "Iter": "171"
	},
	{
	  "Volume": "9499042",
	  "MID": "gameskraft",
	  "Month": "June 2021",
	  "Iter": "172"
	},
	{
	  "Volume": "8736425",
	  "MID": "mplgaming",
	  "Month": "June 2021",
	  "Iter": "173"
	},
	{
	  "Volume": "4819411",
	  "MID": "vodafone_app",
	  "Month": "June 2021",
	  "Iter": "174"
	},
	{
	  "Volume": "4704067",
	  "MID": "dreamplug_live",
	  "Month": "June 2021",
	  "Iter": "175"
	},
	{
	  "Volume": "4457968",
	  "MID": "bigbasket",
	  "Month": "June 2021",
	  "Iter": "176"
	},
	{
	  "Volume": "3346473",
	  "MID": "zupee",
	  "Month": "June 2021",
	  "Iter": "177"
	},
	{
	  "Volume": "1426040",
	  "MID": "relianceretail",
	  "Month": "June 2021",
	  "Iter": "178"
	},
	{
	  "Volume": "1388865",
	  "MID": "rummytime",
	  "Month": "June 2021",
	  "Iter": "179"
	},
	{
	  "Volume": "1148866",
	  "MID": "vodafone_web",
	  "Month": "June 2021",
	  "Iter": "180"
	},
	{
	  "Volume": "11350030",
	  "MID": "com.swiggy",
	  "Month": "July 2021",
	  "Iter": "181"
	},
	{
	  "Volume": "9492406",
	  "MID": "gameskraft",
	  "Month": "July 2021",
	  "Iter": "182"
	},
	{
	  "Volume": "8214745",
	  "MID": "mplgaming",
	  "Month": "July 2021",
	  "Iter": "183"
	},
	{
	  "Volume": "4767905",
	  "MID": "vodafone_app",
	  "Month": "July 2021",
	  "Iter": "184"
	},
	{
	  "Volume": "4458565",
	  "MID": "bigbasket",
	  "Month": "July 2021",
	  "Iter": "185"
	},
	{
	  "Volume": "4365926",
	  "MID": "dreamplug_live",
	  "Month": "July 2021",
	  "Iter": "186"
	},
	{
	  "Volume": "3188033",
	  "MID": "zupee",
	  "Month": "July 2021",
	  "Iter": "187"
	},
	{
	  "Volume": "1629144",
	  "MID": "rummytime",
	  "Month": "July 2021",
	  "Iter": "188"
	},
	{
	  "Volume": "1498460",
	  "MID": "ixigoprod",
	  "Month": "July 2021",
	  "Iter": "189"
	},
	{
	  "Volume": "1492519",
	  "MID": "relianceretail",
	  "Month": "July 2021",
	  "Iter": "190"
	},
	{
	  "Volume": "11749509",
	  "MID": "com.swiggy",
	  "Month": "August 2021",
	  "Iter": "191"
	},
	{
	  "Volume": "8997790",
	  "MID": "gameskraft",
	  "Month": "August 2021",
	  "Iter": "192"
	},
	{
	  "Volume": "7403006",
	  "MID": "mplgaming",
	  "Month": "August 2021",
	  "Iter": "193"
	},
	{
	  "Volume": "5218760",
	  "MID": "dreamplug_live",
	  "Month": "August 2021",
	  "Iter": "194"
	},
	{
	  "Volume": "4956913",
	  "MID": "vodafone_app",
	  "Month": "August 2021",
	  "Iter": "195"
	},
	{
	  "Volume": "4036832",
	  "MID": "bigbasket",
	  "Month": "August 2021",
	  "Iter": "196"
	},
	{
	  "Volume": "3623822",
	  "MID": "zupee",
	  "Month": "August 2021",
	  "Iter": "197"
	},
	{
	  "Volume": "1877924",
	  "MID": "rummytime",
	  "Month": "August 2021",
	  "Iter": "198"
	},
	{
	  "Volume": "1679842",
	  "MID": "ixigoprod",
	  "Month": "August 2021",
	  "Iter": "199"
	},
	{
	  "Volume": "1635548",
	  "MID": "relianceretail",
	  "Month": "August 2021",
	  "Iter": "200"
	},
	{
	  "Volume": "11754519",
	  "MID": "com.swiggy",
	  "Month": "September 2021",
	  "Iter": "201"
	},
	{
	  "Volume": "8668835",
	  "MID": "mplgaming",
	  "Month": "September 2021",
	  "Iter": "202"
	},
	{
	  "Volume": "8223328",
	  "MID": "gameskraft",
	  "Month": "September 2021",
	  "Iter": "203"
	},
	{
	  "Volume": "5243775",
	  "MID": "zupee",
	  "Month": "September 2021",
	  "Iter": "204"
	},
	{
	  "Volume": "5124937",
	  "MID": "dreamplug_live",
	  "Month": "September 2021",
	  "Iter": "205"
	},
	{
	  "Volume": "4834731",
	  "MID": "vodafone_app",
	  "Month": "September 2021",
	  "Iter": "206"
	},
	{
	  "Volume": "3880585",
	  "MID": "bigbasket",
	  "Month": "September 2021",
	  "Iter": "207"
	},
	{
	  "Volume": "1944623",
	  "MID": "rummytime",
	  "Month": "September 2021",
	  "Iter": "208"
	},
	{
	  "Volume": "1930336",
	  "MID": "olacabs_main",
	  "Month": "September 2021",
	  "Iter": "209"
	},
	{
	  "Volume": "1744115",
	  "MID": "ixigoprod",
	  "Month": "September 2021",
	  "Iter": "210"
	},
	{
	  "Volume": "12724548",
	  "MID": "com.swiggy",
	  "Month": "October 2021",
	  "Iter": "211"
	},
	{
	  "Volume": "9173877",
	  "MID": "mplgaming",
	  "Month": "October 2021",
	  "Iter": "212"
	},
	{
	  "Volume": "7838674",
	  "MID": "zupee",
	  "Month": "October 2021",
	  "Iter": "213"
	},
	{
	  "Volume": "7612463",
	  "MID": "gameskraft",
	  "Month": "October 2021",
	  "Iter": "214"
	},
	{
	  "Volume": "7561867",
	  "MID": "dreamplug_live",
	  "Month": "October 2021",
	  "Iter": "215"
	},
	{
	  "Volume": "5055398",
	  "MID": "vodafone_app",
	  "Month": "October 2021",
	  "Iter": "216"
	},
	{
	  "Volume": "3911475",
	  "MID": "bigbasket",
	  "Month": "October 2021",
	  "Iter": "217"
	},
	{
	  "Volume": "2258989",
	  "MID": "olacabs_main",
	  "Month": "October 2021",
	  "Iter": "218"
	},
	{
	  "Volume": "2082703",
	  "MID": "zupee_ninja",
	  "Month": "October 2021",
	  "Iter": "219"
	},
	{
	  "Volume": "2033001",
	  "MID": "rummytime",
	  "Month": "October 2021",
	  "Iter": "220"
	},
	{
	  "Volume": "11450908",
	  "MID": "com.swiggy",
	  "Month": "November 2021",
	  "Iter": "221"
	},
	{
	  "Volume": "8925404",
	  "MID": "zupee",
	  "Month": "November 2021",
	  "Iter": "222"
	},
	{
	  "Volume": "8000078",
	  "MID": "dreamplug_live",
	  "Month": "November 2021",
	  "Iter": "223"
	},
	{
	  "Volume": "7466961",
	  "MID": "gameskraft",
	  "Month": "November 2021",
	  "Iter": "224"
	},
	{
	  "Volume": "6995423",
	  "MID": "mplgaming",
	  "Month": "November 2021",
	  "Iter": "225"
	},
	{
	  "Volume": "4878355",
	  "MID": "vodafone_app",
	  "Month": "November 2021",
	  "Iter": "226"
	},
	{
	  "Volume": "3736326",
	  "MID": "bigbasket",
	  "Month": "November 2021",
	  "Iter": "227"
	},
	{
	  "Volume": "2632605",
	  "MID": "cred_store",
	  "Month": "November 2021",
	  "Iter": "228"
	},
	{
	  "Volume": "2460182",
	  "MID": "bms",
	  "Month": "November 2021",
	  "Iter": "229"
	},
	{
	  "Volume": "2425682",
	  "MID": "zupee_ninja",
	  "Month": "November 2021",
	  "Iter": "230"
	},
	{
	  "Volume": "12869349",
	  "MID": "com.swiggy",
	  "Month": "December 2021",
	  "Iter": "231"
	},
	{
	  "Volume": "10312701",
	  "MID": "zupee",
	  "Month": "December 2021",
	  "Iter": "232"
	},
	{
	  "Volume": "9233329",
	  "MID": "dreamplug_live",
	  "Month": "December 2021",
	  "Iter": "233"
	},
	{
	  "Volume": "7747563",
	  "MID": "gameskraft",
	  "Month": "December 2021",
	  "Iter": "234"
	},
	{
	  "Volume": "6422753",
	  "MID": "mplgaming",
	  "Month": "December 2021",
	  "Iter": "235"
	},
	{
	  "Volume": "5152466",
	  "MID": "vodafone_app",
	  "Month": "December 2021",
	  "Iter": "236"
	},
	{
	  "Volume": "4386811",
	  "MID": "bms",
	  "Month": "December 2021",
	  "Iter": "237"
	},
	{
	  "Volume": "4089972",
	  "MID": "bigbasket",
	  "Month": "December 2021",
	  "Iter": "238"
	},
	{
	  "Volume": "2383954",
	  "MID": "rummytime",
	  "Month": "December 2021",
	  "Iter": "239"
	},
	{
	  "Volume": "2333170",
	  "MID": "olacabs_main",
	  "Month": "December 2021",
	  "Iter": "240"
	},
	{
	  "Volume": "12698387",
	  "MID": "com.swiggy",
	  "Month": "January 2022",
	  "Iter": "241"
	},
	{
	  "Volume": "11109125",
	  "MID": "zupee",
	  "Month": "January 2022",
	  "Iter": "242"
	},
	{
	  "Volume": "11099931",
	  "MID": "dreamplug_live",
	  "Month": "January 2022",
	  "Iter": "243"
	},
	{
	  "Volume": "7439347",
	  "MID": "gameskraft",
	  "Month": "January 2022",
	  "Iter": "244"
	},
	{
	  "Volume": "6767843",
	  "MID": "mplgaming",
	  "Month": "January 2022",
	  "Iter": "245"
	},
	{
	  "Volume": "5023780",
	  "MID": "vodafone_app",
	  "Month": "January 2022",
	  "Iter": "246"
	},
	{
	  "Volume": "4851698",
	  "MID": "bigbasket",
	  "Month": "January 2022",
	  "Iter": "247"
	},
	{
	  "Volume": "2832213",
	  "MID": "Grofers",
	  "Month": "January 2022",
	  "Iter": "248"
	},
	{
	  "Volume": "2612838",
	  "MID": "swiggy-nf",
	  "Month": "January 2022",
	  "Iter": "249"
	},
	{
	  "Volume": "2556717",
	  "MID": "airtel",
	  "Month": "January 2022",
	  "Iter": "250"
	},
	{
	  "Volume": "8167730",
	  "MID": "com.swiggy",
	  "Month": "February 2022",
	  "Iter": "251"
	},
	{
	  "Volume": "7787052",
	  "MID": "zupee",
	  "Month": "February 2022",
	  "Iter": "252"
	},
	{
	  "Volume": "5512040",
	  "MID": "dreamplug_live",
	  "Month": "February 2022",
	  "Iter": "253"
	},
	{
	  "Volume": "4923963",
	  "MID": "gameskraft",
	  "Month": "February 2022",
	  "Iter": "254"
	},
	{
	  "Volume": "4694191",
	  "MID": "mplgaming",
	  "Month": "February 2022",
	  "Iter": "255"
	},
	{
	  "Volume": "3388442",
	  "MID": "vodafone_app",
	  "Month": "February 2022",
	  "Iter": "256"
	},
	{
	  "Volume": "2946953",
	  "MID": "bigbasket",
	  "Month": "February 2022",
	  "Iter": "257"
	},
	{
	  "Volume": "2136887",
	  "MID": "Grofers",
	  "Month": "February 2022",
	  "Iter": "258"
	},
	{
	  "Volume": "1882847",
	  "MID": "swiggy-nf",
	  "Month": "February 2022",
	  "Iter": "259"
	},
	{
	  "Volume": "1851326",
	  "MID": "A23Games",
	  "Month": "February 2022",
	  "Iter": "260"
	}
  ]